<?xml version="1.0" encoding="UTF-8" standalone="no"?>
<!-- Created with Inkscape (http://www.inkscape.org/) -->

<svg
   xmlns:dc="http://purl.org/dc/elements/1.1/"
   xmlns:cc="http://creativecommons.org/ns#"
   xmlns:rdf="http://www.w3.org/1999/02/22-rdf-syntax-ns#"
   xmlns:svg="http://www.w3.org/2000/svg"
   xmlns="http://www.w3.org/2000/svg"
   xmlns:xlink="http://www.w3.org/1999/xlink"
   xmlns:sodipodi="http://sodipodi.sourceforge.net/DTD/sodipodi-0.dtd"
   xmlns:inkscape="http://www.inkscape.org/namespaces/inkscape"
   version="1.1"
   id="svg2"
   width="256"
   height="256"
   viewBox="0 0 256 256"
   sodipodi:docname="Pastebin.svg"
   inkscape:version="0.92.1 r15371"
   inkscape:export-filename="/home/lise/Bureau/chatns/Pastebin.png"
   inkscape:export-xdpi="240"
   inkscape:export-ydpi="240">
  <metadata
     id="metadata8">
    <rdf:RDF>
      <cc:Work
         rdf:about="">
        <dc:format>image/svg+xml</dc:format>
        <dc:type
           rdf:resource="http://purl.org/dc/dcmitype/StillImage" />
        <dc:title />
      </cc:Work>
    </rdf:RDF>
  </metadata>
  <defs
     id="defs6" />
  <sodipodi:namedview
     pagecolor="#ffffff"
     bordercolor="#666666"
     borderopacity="1"
     objecttolerance="10"
     gridtolerance="10"
     guidetolerance="10"
     inkscape:pageopacity="0"
     inkscape:pageshadow="2"
     inkscape:window-width="1360"
     inkscape:window-height="713"
     id="namedview4"
     showgrid="false"
     inkscape:zoom="5.6568542"
     inkscape:cx="24.355262"
     inkscape:cy="49.785329"
     inkscape:window-x="0"
     inkscape:window-y="0"
     inkscape:window-maximized="1"
     inkscape:current-layer="svg2"
     inkscape:snap-global="false" />
  <image
     width="256"
     height="256"
     preserveAspectRatio="none"
     xlink:href="data:image/png;base64,iVBORw0KGgoAAAANSUhEUgAAAQAAAAEACAIAAADTED8xAAAACXBIWXMAAA7EAAAOxAGVKw4bAAAg AElEQVR4nOy9eZhd11Un+lt7n+HOQ92aJ40uydbgeU7i2CEzCQlJIEBCAklDN83Lg26g+wHNAxpo IEADjyYQQjoTcUxMiJ3gOPE8xvIg27Kl0qySah7vPJxz9t6r/zi3SlWlqpJkq2TDy+/z9/nq1j3n 7L3PWmuveRMz4wf4Af7/Cuu1HsAPsC7wAvPt5woTheDm7ckrNsZe6+G8fiFe6wH8AOuFZFQ+drDy m7eP/PFd46/1WF6/+AED/NuELenWHUlfYbbKdz6V/8hfHlP6B7ruCvgBA/zbhBAkBX3yLa1EJKU8 MuG/7fcOHRipv9bjet3hBwwAAI2Anz3h//Nz9ftebgzPqdd6OBcMN29LRB0KUa7rn//s0JOHKq/1 oF5foH+9XqC5qjk2qYZmVanOfS3y6o12LiFfwX0CzZ/6SmGqaFyHBDgwSEboin77jdsil/fZF3zY FxPG8K9/bezRwaolKepQoexHHPqLn9nwA7N4Af+aGGCuap4f8p8Z8mfKplAz+arxFRwLyYhIRuiS DuvdV0S3tJ+3X+s3/6m4bzgQhM3tViPguYqpeEyAILg2be+y377LvfkSdz1mdBFw+xNzf3XvjJR0 WV9yIl8fnq4lIuKOX97amXmNeXu2oo9P6U1tsjX5SsTWhcK/Djfo44e9Bwe9IxNBoQazlGMbARqB mSmj3OCYS4Iim9rOY1KPHvJeHA60wWXdVntKMmNjKzUCni7rsbwqN/iZE/7zJ/2WRPVduyMfui4q iC705NYXWzpcELRm17G296VmS17dNx/5y2P3/9b213BUL40En3+0enRSCcL7rope2m1dscGJ2K/B 2r6ud4Bi3dy9t37ffq8ecMNnwwDADBAEYdnAcwlx7SbnnbsjWzvOgwF++M9mGMjE6IoN7mI/CRGk wFzZHJ5UVY+JIAiZmHjH7shHb/rXpD8cGmv87GdOMbBrY3pDe2x4urbn4LQlRUfa+tZ/HXhNhvTl J6r/+HQdgGGAAcJAp/XGAfdHr4le/MG8TneA8YL+/KPV7x/1l3GnNmhJiHRUNAIu1U094FBoEBCx saPHOi/q/+zDFQaYsa3TXuYlZIbSSMfFDVuciaI5NhV4AfJV87Wnat9+of6RG2PvufI1eFuvAEQh jaHuaympKxfpaolNFuqTRfXJz5z43H/YdJHH83t3lb5/zAeQiortXdaJaTVTNocnVN3nze3yin7n Io/ndecFGi/o37iz+MnP559cSv3awLHoig32tk6rJU5xlxbvmB1p+v0Ppm+7LHLuDzLMdz/fANCa FFFn5c2XGcqgLSVuusTd1m05FgyjXOe/eaj64c/MvjwSvLI5XkxUPQMA1FQdbSmuHmgJ/7TvVP0P v3lRY2T/87vlkPozcXFFv+1atKPXziWFFBjN6y89UQsuerDidcQAxbr5/btLn/x8/oVTSwiLGcy4 pNO6cYuTiQrHoqhDMZfqPgMgoCcr/uqjLW3naUt9+4UGMwxzf87SZq1fMkMbdKblTZe427uabFCq 8X/9evFXbi9MFPX5z/Xi4cSUD0AQBapJW3HXurQvrQ0D+Mae/J4jF8kx+shB7/79HoC4S5d124bB gNLY0WMnI4IIJ6bU5x+tXpzBLOD1wgBffLz6k5+Ze/Kov/ANAeEb68rKNwy4PVmpufmNFFSsmZrP AsjGxe99IL2aCF8D/7inxoyYK9JRcS5iJ2SDjrS8aau7tcMSAtpgcFx94u/zv/PNYqWxJg+9dth3 sg4gtGHCNWLmbX0px2q++t+6Y3S1awtVNVe5MFGR8YL+s3vLINgS27tsuYjujMGWDksK8jUeHPRO TF/UOMxrzwD7hv2f+dxcaBWFCEmfCJtarRu3ugMdFi01eX3FpTpLQjJCn3proj113n604VmVrzED XWlpzscNwAzN6M3Kmy9x+3My3J2ePh78+F/PfeXJiy29zgXDs80dIObKcJ4M2FIM9KbCTSBf1Z++ ewVFqFBVjw1WnjhYGZn1z/zrecFX/B+/lFcGbLC92467tHjJGUi41JkWglBt8JeeuKjL+BozwP9+ tPobd5amSkvEJwO9WXnzgNufk1LALKVPwyjWTMUzqSi9fVfk2s2vxGx65JAHgAhtSWFWp38CVnR7 hpdsabdu2Opk4s073P5U/SN/M3ts6vUVSC7XtTEsBEVdC/MzZeYtXYkFOfzPT+fPlPQP7y8/tL/0 1JHKy8PnlEDBZtU98BN/n/cUtMHWDqslvmTBQ07QBr0tli1hgH3DwdDMxVvD15IB/vtdpTufrS+h P0IiIq7d5GztsJiXkz4AZlQ8Pj6t4w5taLU+/sb4K3v0PS82mBF3KO6uugKCMFow5Qb7qyj52sCW dOUGZ1efbQkYRr7Gn/pK4QuPvY62gtC7JQnxiJxXIcFAxJEbOuLGMACl8dn7pxdfNVNW975YPDbp HR5v7DtZW/sRL//z3f/085/60gd+6ksf+Mm7f/m/Hr7vwcV//dWvFeaqxjC6M3KZuWUMaj77igFY Aj0tlgC8AF9/+uLlLL1mDPDH95SeOrZI4ydYgjbmrKs32hGbVrNKawEPjgURG1GHfu3dyVf26Imi LtaZgbaU0KvLfwZilpqdKXiBqfpYzUGhNLfExY2XuN0ZERp2X3+m/h+/lG8Er4sAy1RJAXAdGXfl YsXDMA/0pha+uPvZfMM/veife2D62IQ3W1aFqh6e9VfLJD32yGNfeN+P7/m7LxSGR7Tvq1p95uDB J/78r+/5L/8t/MGff7d8YEwxI+bQti5r8RoSUPa45rOnmYCQQ2wLBthz3K95F8mmem0Y4E+/U354 0Fv4JwGOpF191oZWqQ1WIxylsX8ksAgRm3765lhL/BUOPnw0M1oTcg3937DYnCi9KXNkY/X77NcC Q41g5X0+tAS2d9lX9Nu2hGEMzegP/dXsofHX2E86NucrzcaYZNRy7CXLxYxUzG5PR8IVUBpff2ou /FOhqr77QrERmECzr8x0SY3nl0/kxGNP/uMnfuHBP/gT7QdkDLRmpdgYGIYOJl7c99hf/PUD+xv3 7fcACIEr+u3FooYItYDH86rm8UJwXRC6MxYYDZ9v33ORNoHXgAF+55vF+w80iAho+iViLl2zyUlE xBruSCIMjgVewO0pcUW/feulS1z+5yVuQwPAlkit6f9hUErPbHFGrk8efzvfNTFTVZoCw6uJQ2WQ jokbtrjtKWEYhvGfbi/etfe1zEC+c08eAAipmH1mEoc2ZltfSs3z9Fcfmw0//MveoqeMMgyQZkwV g9G503t1UK//089/6oHf/+Py+IQgIq3BzOCEZcWlZcDMIODYvd+783P3AGDGpd2WY9HSR+P4lPIC 3VAm5jTfgmF0pIUlAeC7LzUuzhZ6sSPBf3V/+amjvhCEMEjJyMbE7n5bm+WpDYtBhJE5PVc1V/Tb bSnxS29PjuX1wfFgpmJOzujZisklxGU91m2XRs7FH3pqVjMjlxT6bP4fQzJuSgK6zfE+lrzrD059 cGuH1RIjZratFR4U3m9nrzOe1wfHfYA++3D14HjwX96dOuuo1gNPH60xI+pY6bh9prOLGV0tUdeW oSUwW9EHR+vbe6LffCbPjETUsm2pA1OqB/tH6jcMJAAce+jRhz/95wBICGgd+uvStnNre2cuGgeJ l2Ynn83PCiICdh/75lDvm3qzoj1lLUszGZvTxWoQs3SvmHJFt2+adBixqTUpp4q66vEDBxrvvnzd w+0XlQEeGmx858VGk/oBw2hPih29tlozlESEqsfHp1R/TvzMG2PHp9WnvpI/Ma0FgQiORTGHBGFw TM1Vapf329u7bGcl6gyx55gPgBm5hDir/5PYBOREucKgNqfyqc57/sfIe/szanObxYpXe4rS3JEW 6Zj74qmgHvCjh/zjU/m//Zns2ZYHs8dP+JXq6N4XiiNjHTu2b3nzm6LZzFmvWg2B4qMTHgjJmJWO WytOlgi9rbGhyUq4P3zzmcKHbTEy6zPQmY0JAT/gciMYHKkDePKv/27/N78lbdsoLcAGHJX2dZmW reksmKE1oHe1tNW0OlAqCqJUUO0vH9x86eXLqL/m84lp5QooQ7ckXjqh3RnqJDAAbdDfIieLGsC9 +/5tMcCzJ/z/+d0yE4W+RWPQk5UDXcuTcM6E0jg0rgBsabc+/Z3yeKG5ZZum8so1z8xVVNShy/ud mEMtcdnbsmpk4OnjPgDDnI2vZQAAAJgo3M9BYGbaEpn6ZOfDn5u8teoFl3ZZAFbjAcNwLbp+i/PS SDBbMSN5/b6/mPniv2tJx1bVOev5wot3fGPk2edUw9NBcPzRx7//mc8BsGPRrl07+667pm1ga3ZD nxU513SPLzw8A8C1RDbh2HJlc98w97fFjo+XhSQA33uxWPdMKP5722Jac7kenJqil09W7v6lX5sc PCQsi5USBMN4Q659eyKD7g5kkjgxjIYPAoy5rq27ptRIvU7E143fP20uX7KmjMPjiogNsNWd3OwM F0z/tOwmNKVgzBWpKJUbfHxaTxZ1R3p9k6UvEgM8dtj7o2+XGKepvy8nt3acnfrBGCvoUt1IgUcP rRCRCXd2Y6A0z1VMvmbS0bW0oJABIja5Fqk1QgAAAR6iLhrzoTnWjJuTh0f93H2FnfuGg0t7bGa4 qyTxhml2l/fbh8bVyJwG8JG/nfvTn0gPdK6ciH/04UePPPTImfwR1Oqn9jxzas8zAEAUb23t2r2j a9eOzt07M709a4z/7x+aZXAiandkIqsF+5jR2RKlefOg0jD3vVRkxlWX5GIRi5k1M7T/jqf+eJrr RERaMxCV1nvaexLJJG67HgMbMTyBwaNhxIQB1urSdMtEY0yDM6P7p/0GnCbTCsJIXudrxhGsWb49 80KgrU5x6qC8WswzgGHua7EGxwIGHj3sfeja9c29vRgMsG/Y/6N/KYVvgABjsLHV2tRunUuZdtXn kzNKriI3jTFExMxg1oYYeOOAm4yuKmW14bmqYUYmLnhVb9MCuEYJwZrnjXUAvhE/kXtiXLUerLbv Hwm2d9sMrJHIrjQGOi1LYGhGQ+A/3V781Xcmbtm+XIorz3/sM59b4AxmZoC1ZmNAJIQgotBmqk5N HX1g+ugDD4e/7Ny1o/+6a7bcdkuirXXxDX/ja6MALCEyCTubsNe0r6g9E5kpeiEXBIp3bspkEg4A ZkjWP/7iHzq6YYgls2H0xGLvzHViYBN+5DbUGrjnURw7tRAvDLPr2yPRmCUrgQrYdO77zvg17wdA QEPh2KSyBDPERndqa2SiZiIJLvJC3gvAjGxChJvMY4f+TTDAb32jxM20ZWjmLe32hlZ5LtSvNI5P K+YzwrHMBmy0BiiUXoKQjcuPvSG+rWutQqd9wwEABrIxWlP6AwABNUoaEoKX2Ch1I//vzn/5jZGf Knr24GiwrdPmGKKr84A22NxuS4ET0xrAH99TGZ7TH7lpSQjvqc9/ceFN2FK0OZGokLkbr0p2d/j1 xtzYZH58sjg7Z7T2G161WLJdR1oWgImX9k+8tP/pv/+im0xsf9c7tr3jh9I93Q+8VHrgpTKARMTq zEZCo2s1GMPdrdGpQkMShb7RS3qaJrtg3vT1XyXdIGYJNuCrsrmrEhncch3ecj2e3Y8HnoIKFrsv BBBqqAPx9AvFOcPI7v2X8d3vgBMlgcFTAQACBZA/0vKMb2wGWfBdbphFDklJSMdEoWqOT+li3aRX l2ivHuvOAL/0D4Vgnn604Y1t1obcOcl+ZsxV9VzFLIj/cJ1tCwmXbDITBQVhC4IUFHHoE7ckdved JS3ixVNBeJ+II86+AYB9RHxEoqgyqKm/wQAUaP617m/+6omfcCk4OBFc0mlpVyQia/AAb2i1LElH JxUDtz9VPzWrf/09p11D4/sPNh8JvK2jp9uN44NvxZZ+CAECSEAKkEAQIAi8cuWlBx/fc9e9luvQ vPrilSsv3nHni3fcabe0Pha/Mdp6pWHqaOlsSZ5lTRjcmYkaMwfAtsS121sXMq8yt/+6bJSZWZJR jGuzuSsTGbzrFly3C3sH8b0nILCy8455czL1UikfsCkGfvt3/r/ZW39mknL5mrEEDNOWyMRAZKJm HACCTZSrFUrR/CsxjFxcFKqGgWeP+2/ZcR5Z7ueL9Y0DfPbhypFJxU01nTuT6I3X19a8F9BQfHJW h9TPDGOQjdNlPdY1G53tnVbEkdJyZagbgH/s+vgbBs5etjs4FgCQApnYOWWAKlgNigLN/cun5iMY lODyL3bdVzOOIBydUMWGKdbNGvWS2qAnK3f02FKAGU8c8T/1lfzCX+14LKyOEkDNDxBz0dXWdK0o jSBAw0O9DqUgyE2nrvmxH/mJ//wLu3NtSRKe1npRXV8wN3PD8Ld+8vnfff/gX1zz/T+PDj239hyZ kYpZALZ2J2+9vCMTd8J7xZ/4mpwdAbOEYYNWN9InbLznNly9A8Uyvvc4QjWFl89ZhJFNy+qNxQBo NtbI/sjz9w6OB2EGqoL8QG5P3dgMCBgBE+HqsiGl480X9MyJV5uKtzbWkQGePeHftbcRfjaGk67u tCfGTh6aGDoQ+I21r1UGU0Vd80L13rQlcM0meXm/k0tIS1JD0XipGX9lxm07YueoKR4YUwBsiTWV gtOIclXAEACwDS2IDZpOCQ2xK3riPS3Pe2wT4fikKtd5tmLWuLM2yCXErl7blmDg2JT+6N/OhdkB bjoZWhoaKPg+chlY1sqJeKFx7fstu7bf+KPv+onbbv257TvekGvL2o5v9GJjN+4VohOHkv/yF5nb f8MeObDGNBl084727X2p1Hy4wJo6EXvuWyASYAaitpVmtL77Lbh8AI6Nux9aOqCVYMyOVItFghna aOvoM5HaLABmGoiObXEnDQSBARbQDrxFdhYAxB3hWMD8pr1+WC8GqDTM73yzhKZVRI7FW5L54tyU 36hWCpMTJ15eiwcYXsAjc4qNSUR4d5+9tdOORZp5VGxwZFL5gQ5F5qU99i+//ZySgsp1Y7gpXc7l 9wySUA574Ts+4nUOVrsaFFlQnpSht2ZeuilxMGCLCEMzqtLg0byWqzOBYaSjYne/48hQxzM//bdz xbqxHMfTKhTkc0EDERd8DskwghB1nIGNO/v6P7Rhy8c3DmxLpuZN6CaIjTU9lPrGHyS/9adUL680 TRjmrlzUdZp+YTk7krnjt1hICQazJIqRvHL3Ttx4BUA4OYrxKWC+QmIlhPNPuW6HG5GCDGDXiwMn vwtAQ/xodk/DWAQO/wPgcGMZG4V+agClBs+U17HkaL0Y4Df/qdTUdIiIzM5O3aiXle8ZrdgYr14e O/aC31g5zZAJNd+Ag+3d8qoNkXTMsmST6qTA4cmgXFdhnnI2Jn77/elzHNLRKQWAgbi9VtR5AQRW ZDNIgE/5bQ+Xdnx77srPjP3Qcb/TFYrADHLYf2v2wKXRYcUSwEhezVbMsanAlmvxQMKly/sd1waA UoN/4Yv5gKy6UnWlCCioAMdOYaYAEar+K92KCH6AsZAQgVwazHHLenNn70c3bB1IpYUQiydJYPfE 3uyXfyWy777Ft+FF95sfn858/bdBJNmEnORI2SVly4+8DQRIgSOnQIA2CNaiSwJgzK50iyskAYJ1 98Rz0qtuj45tjkwu+7GEXrYDMJCJiZA6D46vY3b0ujDA15+pHZlsDpqALe1OPJ4gYdG8aGRj/Hp1 9OjeFfcBYmSidPWmWFfWWUyoUmB4Tk+XFHMYT+Df/JF0MnKuU5guGwCCYMy5lo8p2AyAkA/iJxod BR0f9bOfn7r1azM3V03EJq1JRh2xMz7aZpcYZAzyVXNqVh+dClZz3QIwjKhDu/sc1wIRSg2+byzr BYGnFYHq2vha4Qv/jDvuwf5jCBRsC2LR7YhQreOfvgvDAEFrBMpIYQAYE5HWmzt639/d1xqJLuNz 0ajEn7g9ddcfkbdqhnP6G39AgSfZAGDAEoKNueqqK5FNNvmFCEKiGSEEQv/sKtZPSzTaHYkxAEY0 KG8ZefA92WcClnXjLpi8BLawXM9hRipKoX2xf3QdtaAL7wWaKul/eLK5vobRlRa5hBACua4tfr2q VcDGMBsAgVcfPvjMhh03SrlkGAzYlrCWOhiIUKqZ4ZlAGyYiw/zvb01d1nMe3Z1OzSoAzIhF6RzT rBRsA9swdTiF0GVB4IqOPFK67KnKJbtjJ6+IDwWwCzqRlPU5lQjHScDxKZWKipb4qtkWzIg6tKPX 2T/i+xrF6UlHBWFeqWIz5/udkSgfG8GhIbaE6MjhthvR0wGEQTmG5xvNOHgCsShk6B3STRcVQEa3 OJH39216OT/7/dmpxc+lwLOH92e++v9Ufujngr4dy0YVeekBZ+wgIMIiekFk2FyVanGv2tF0gAUK 2zdi3yEYA2OadM9o7lR1D2KpUWDM5ZncUK3iayNYbR55+EjjJ+8v7o4ItTUydl38iIEwEC7XGMtZ KOYIQdC8vjuA/O3f/u0Le8c/+U55eK6pGro2be2wow4xg4ji6dbi9Igxp+fDbArTw6lcj5CnI97h qp4pUg6OB5VGc9t947bIz92aOK+BPTjoDc1oAB1pGTu3GmKG6DdHYlwB0ZPlbRoiHJgg1hCjfu7Z 6papIN0wck4lPT4dC5CCxvO6r0Wu3UjLtSgdk3OVwDn+WGT2qGJOuS6Ico7TEY0xNQmLq3V+fpDK VbTnQIDSEIJ6O/jAMTQ8eD6UwaJFC60jYm6PRI9Wyg2tiU6vJzELv+Ycf46lrbsuOT0av5G583eJ hCTmMHBDlLXcWy4ZwI6tiLrwAgQKsQh2bIGQSMaRy2LrRrzxarzlRrzhKvR34+AJLEoZZ8C17Wrg T3sNAsioI3LgWHRnSUfKOrYtOu6QNhAzomdK9AossSiIUKxxzedyw3z4hvUKh11gFWjfsP/sieaG pQ36cjKxqABUSiuRbReL5D2zMVod3/dIvVJY47ZEGC/oUq1J/V0Z+RvvPVfVfwFhihUDjlzVdXEG uE4xAFHhx0TTH9esk2RIMjbpySB9rNFZ1FFaelNL0rNDvrW6MQDAMJIR2tkb0cl2w+wrXQ8UgGOV pdYqERzbvHzEfPYOfP+FpjoUi6CvE2GYcP4hvGhmBjBEN2RbN8Tjig2WyhTh1+KPfzX+8BcXvsne 8ZsLbp/wJpr5ltZ2xGMoVVFrYHgcD+5BzUM0ijddjffcivfcipuuREcrtEHdQ38XcpkFF1vzf8Zc 19IWspM0qvP4Y76RdeMebnTVOGogNGxFK2gihpGOCQYCjXJ9vepjLjAD3LGnWeLIQCpGHSm5zOkf T7Vativk8gmfHNwzPXpktdsqzdPFwA8UM0viT3+45RWMrdxgAGHgbI2fLRaWAlxHgsFR4Xc4hfB7 IdGelMko2TLUR5h5ZY7yAhyfCtZ2uRpGzKX+q67TIAaX/IZFNOnVV7ihFJDCPPWiuf0eeAEMi8su IdumZoRuyRy00QALog2JxC2tHTtSWcWG6PTkGDBaWc9/x73nLwHYz9yFubHQ1WCYCTDg7kg050bg +RifKj2y5+k7v3339+4bf/kgqjU0ApSqePEgHt6Dux/A4LGmVbCh+8yRS8vakc4ymEDJykiqPOwb 2yWVtaoMCkMBKy7OgvQ8sW5VwhfSBhiZ02GuAQBjsLnVss4oaU9k2mZGj1i2qwCjT89KCDE7drxW mu3cuNONLtFtGKh6erpYZwiA/98PtrYmXwnfhgG4UF9dcQMgQqBQ9owjKB5pViwoGYmxz0RXxoeO NTo1CzZkSdy01ZksmVLdeAEAlBo8V9XWgvCjUFPCsSnd22KtzQPMSG7cXo2lTLVQ8XwGDGPWb2Sd lUJ7UmBiGqUyMmkkY5RN8/Tcgv7DAIgGC7OnajXFptV1d6aySce5IdtaVv5YvU5ExFDGZCEGtm5p TabcejG498+C/GittWOoVj1ZK9skGHCE7I5GybJMvvDs5Njw3Jzn+QH4oX+4c9tl265Mt2BoDEqL Szfjzdcjm4RlodZAJoVYBNWlZUDGXJbKvlwqECDZbB66f++uT8Skb5PRbABhyBLEtDQ9ixnxSLND yGhe7+47t9d8nriQDHD//oZhsDEgkUuIbHzlhguZtr781MkVecCrlYcPPZNt7891b1n4XilzcqJS rTVs2/rUO1qv2/wKGzUvUOGK5EhA1eND46rmG21AgBAgomdp4J+pNya9iAh5mxmYqxql0ZESnekw 0APbgtb2WEE3AgbTZEmXGiwIlsDgWHB5n63O1nvL7t/pDT6u2NQCPyLtE5VSLte+PIszCLBlo7j1 OkTc0AY1pfLi2RBQD/wT1Woh8H3WE43G/lJxIJG8Odf+xlzHP44MhdR/aXfPLZ/6BDrn8+fyJXzr QQyNXZbOvlyYe3x2yibqiERb7EjV9743OdZQikEKrIwWQk4eG0Kbj5a0ePct6O0EAYPHMXgcxTKE QOiBDXO05lODkm4kZzuFwCegZ+KZ53Z+QgoBIVwEw0HupXrHHKl0FMs6pkRsEW7XY4X1UoEuJAPc /XzdaKXqRUNiY39uNTU70943NzEEYUIeUIEvFvn4jFZzE0PV0mxb70A0kdGGy7Xg8GhJEN08EPng 9a+2tGo1WUyEyaKu+4a5ySHMYOYGRANJqCQxQE31zld8ZEpd0tEU7UQIa3q6s02Vf6BLPn7YL9RY CkyVdMWzovZZXE/u9hu9wccBlDwvmXSPVStXZ3JLvJ/M4h23YGtfs98nM54/gFqDl9oZUsiAtWKj NYe2ymCpeLxauSnXfnkmuzc/R4G65WM/htYMPB+CICWyKbz3LfjMV6HNzlRmsFL0jElYNoPvnRwN tDFEzGyYI9ISwEbbFTdcgZuvhOtg/zE8+Tzq9WZwwBhos+AVXWQOm4Fk+un8jAQr1v1jj1c2X3df Yefz5f7pIAkI1w5qDdGXk0tLLNi1yFMcevDWAxfMBrhrb91TYKNq+RGRH1TlsUHlO6YAACAASURB VDWCTdmOfgDMxrJd21kh1cmrlcePvzQ3eVJp88LxfOhL+cOfelW74IJDZrVx2XKFbhQENAOWiwjY zCfpLEPYysUwAo2bB5z+nAw025IOjAXibCsd2Xp1GMHNNxqWEFWtZgP/NMMqLa7djUv64TgAUK6a ex83Lx2CJbHU9nWk3JZIW0QRSxIRA5JIGfPg1PhovQGgN5FESwaG4dgYGsO/PIJvPoDxGcRjoeS+ OpMrB/5YvbavlFeGPTZ1FXhGExFp05pIXvaLP4vbrkepgi/dhe88gmIJfoCGj0Bhad3N6Ukzb4on wyUSwOZTDxU8+56Z3ZN+mpkMo+7zaEE3Al7sNmNGxAEzpkuv+x3gH75fM1qxUY3SVG+nPTs+FM90 rEjcALIdG4ozo8yG2QgpjRa8KPIfflZBozg7MeOnZsueJcSvvrdzbY/KWRGWC9MZfdVDGEZ/TgqB oRllmk5FaD7doRGAmE+LcyRSUXLWXDylsavPak2KZ0/45TomCqYjvVYTLplqFel2Lk17WtUC35X2 cK3aGok2LzEG7TkQwZKQElNzwpIGgDaYD7k16xaYL83mEpb1VH7aEUIzqioAIImmvZogqiuFw0O4 6Qo8P4gH90ApaI1DJxAEoeTeHE9ELbusfM9IZUyohjFzo1YbuPbqGz/+44i6eGgPnt4HIbBkhZqf zDzpL7xUAmKum7XsfOALNpnSkOsVfTcFnBYtjkQysiRywoAjCeCTs+uVDXFh4gCPHvIeGvSM9hvF iYgptCQk2ARePdXSudolTjReyU8RkdGa2Zwpl5VSifYtz5+oCSG7svZ//3Dvqxzk44e9iaIRAp1p uWKqQhh+j1g0WzUMpKI00Gm3p2RbUnZmZGdatCREa1J2pOXmdutcDPHQy9mdlUMzKjA4a3WfLs34 pw4AIKAlEi0pf0cm10zsCdOeN/UCgNbIJLF9M11+KTHz5AwCBUELajcxp93IpckMAYo5bTt1o5Qx goiIfII4crLTcnDgKKp1KNUs0luAEFONetEP1CKp5De8W378fVd9+H2YnMEX78LQCOSS6fDSD4s3 pYW1VsaMejUBGIjAjs+1DDBICrg2BQoDnVZiaeo/AcUalxtMhB++IrIeJ2hcGBXoK09Ww445jdJU a6IZ/akWpwtTw6tdEku2RBJpolUHYEUSx2el0grAr713VUY6d9gSmC/GXw1h+9udPTaAQo2HZ3Vb UvTlRHdGdGVkX05uyImerIg7tIaCtxiGkYyI1oRw5Aoq0zJEtt/IbMCYazQsISpKFRrz7hQhzOAx 3PsY6o1mGiWAeBRvvl784k+JH7pJJGLw/NPyk1kQ7cy03tre2e66XZFYzo3YUhK45HmzJuDHn0Wx DK1XzGLocqNmPtHZMAdB8MM/99OXvflmfPcJfPlueA3I07lGqziBzwDzhsR82iJhw9iT3Rl59Ub7 jQOuMXBttKVWCJwvuOyOr0/PyQvAAMNzajRv2CitA1sXou7p6OfM2NFaeW61C7s37wYgpKQzFORA BZTaMDpdEkJcviF68/ZX2ARuMWKOQDOFca33pQ2ycXHdFidq02zVPHXM9wOgaRMjzCc91zAawpNs uD9nJSOiEaxVMADA3XQ5ORGAPaUaKhCgo9Xi6dW0LZwYxt99HY8+C98HQrpjSIkrtuOTHxIfeDtS SfiLMmfYOEJemWu/JpNrcZwONxKXdtn3TlbKJC0kV20s2ea6hpmBpGNvisbf++Zb+tvb8aW7sG8Q trWY5M+qmy+eccKNJKQFQBgTr4zvzJTbU3L/qPKV2ZCz6IzVYWCh/cxCdtmFxQVggDufqQNgoxql 6baku3gWRquJE/sbtdJq13ZsuIwNnxkai6Y6Do4py7Iirv2L7+x49YMEEHfnXRO8ujNo/geupOu3 OD1ZWfHMI4e8cp0tufZFyyEIUmCsYB4e9A9OBJZE3D17Ixa7ZxsAAqbrdUuKQ+USmoY4BAAhIAh7 9+N/fRX3P4ly9fRMGNjSh0/8KG69AWoprRjTEone2t7dG42D2dN6slEDAbUGlpXbzX9ucVwNlkK8 ra3rrd19PdLGdx9DsYRFSaZmJepfPL/l4TmAjNkcT/G8J1oe3DNe0DMVHXdER3rlxVlQVicK62IG XAAGuH+/Z7QCCTRm4xGIpbNWQWP8+D6vvvIpDNFEJtvRz2ykZS+oQ0EQ5Kmz7msS8oZLkpdvuDB5 IM38H0JwDqIkjEZd2m2Fh/Y8fsR74aSq+XxWZw7QtFRH5sxDg97gmGpPiWs2OT1ZeS7n60W23RDe YapaEUSB4eFqeblolBKWxEuH8Tdfwze+h7HpphojBIhw9WXYMYBlPRyZAezM5rbGE77RfujtqtWh dHNrWwpHWszodCPZSAwARidQ95Y5EFZcibNMkXljPMHzWaXi0J4w03Nz+wrif9lTasuPy7oweLUM 8O0X6gDARmsVR0EKceYaBF59DR7Idmxo6dzEhi3HlZYDQMTajo3XpBTJmPsf3tb+Kke4gGbTOIbS Z5TxrQKl0ZaUl/fZjqSRvHriiD+WP4saY0uaLZsH9vsvj/rJiLh2k7Olw5J09hr8EJGt14QfakFQ 831L0P5SAbRS7E4IuDZOjeHL38QX/hljk3BsRFycHMP41CrVZByRMmXZVRX4axfcMEekTFrzybYM mBV69wkQiHghI5qWxTpWGENrJCpJACAiOX5Ua9OblS0JQVh5yAv3WK1H96vEq3WD/u/HqgCE5fjF ie64tRpxhDzQtXn3sjSHEOnWnlgqN3XqYNCoGHZHGzkpIaT1pksTWzovWEG0O69N+udzENWLp/y5 qo7YYluXXWlw6CFd8XohECg8N+TPlHXMFVdtdDMxUnq1qqmVYXdtITfGXo2AyVp1Uzo73qjXAy96 RvZUE0RwHTQaSMahFB5/HvsOot44nVK7dKzMiFtWWQUT9Xp/IrlaZZA2RjNPNOoruI3ndxsdBKXA LwdBYAyDicgVVty2E5YlLTvsJQbGcncBUU80dqpWCfeojeUDmQ1XTZWMF7Al0ZZcvk8usP46HWf6 qhhg37DfmDcQO9pbnfxJrBLuZDaBVx879kLX5t2R2ArRXNuJ9Gy9olErHTw2kq+TJSnqWp98S9ur Gd4ypKIEgAFfN9M51wYR9o8EsxVtSdqQky1x0Z8jQWx4Pul93hoODyA6Ma0PjSsGNrVZm9osY87u 9lkR0d231Z75NgjTtdrGdFYQ7S/mr2ntWK7VLCBQ+PC7kYjh5SN44cBpIzjcjYVEcNosjkjLU1oZ c6JS6k+mVmOAgFkQZvzG96fGr29pW6gv87SeDbzxeu25mcnxer0SBIaNYYRaFDMTSAhKWHZHNLox nhxIZbdmsgCB56uQmDfE4qdqVUHQoJax5wdbd9V8NgbxiMjGxIpNV9cPr4oBFhe+9LSlU903njrw 5Go/ZjbK98aOvti1eVc0sULLSyLATgzXso5jiOiWy5K9uQt5aGYmbEvI8M+x7TCjL2c5Fk2W9Muj ASGwLcrGhG3BtUTUQSYm0lESArMVHhwNyg3jWLSz105F12pzfVbEr35n7ZlvE+ApVWw00q57oFy8 It1iyZXCCErhhsvRmoVSeGIv/EVdephhWUtJnMoqmPIaYH50avyWju75ipaVZDxgk3yxmN9fKkSk ZKCudWBM2feKjQaDlTHGsObmab9ohstYG+SVzjcah4qF740Np2znh/s2XNfZy1qHz+qLJhlT4TO6 J547cuXHEi56sjI8qHy1d+OuD2O8chvAV/zyaNOctC2koxSJxrdcceuZqc6LoZU/duzFcn55VSgA QbTveFEbQ0RE9Itvv5DiH0BohjKgNM5FCWIgFaFtXda1m5ydvU5vi5WMULFupkrm1Kw6PK4KNS7U eN+w2jvkV33OxMS1m921m7yfC5y+S0UsBUAAY9VS2BRub3FOrbgDxGO4bjckYd8RVKrLSTlQCDSI IASELHr1R2cmCVBsSp53+8ljBwr5sWrFGA0SzTw2IfON+kOTo8QAWBIxUNO6rnWopmtjLEFKGzAT EOZXs+EwL5ybLlIOaz2M4ZLvffXE0c/sfwFEAhBAxHXiUgIgENXLtdn81g6rPSXNKtQfzim1Pu2x XvkO8MSR5gkXzMjFRdjyRUpr6xW3Du1/slEri1U8JkarmdEjRCKROU3iRJgqeqOztTD778pN8fb0 eZQ7ngtak01Hm2LWGmvU7C6A588nbk9RR0oQwZa0bzioedzfKqdLeniWA83MSLi0s9c58/z6V4b4 de8tP/wVEAqNhq+1I+WxSvmqzBlVEJ6Pt70BUsJ18eLB+VwINCmeOVBqwquP12vFwJ/xvBmvIQiK jTEcQB0p5qtGW0SdkWibEykr32cjIO4fGQqMybrRjemMb7Tm0z4DAYpaFgBH2p4KfKPJcEQIW0pP 67pWSjfJuMkYYMOANodL+S8fOfCxgZ0wWhjujcYPV4qhHzVbGTo0kbluk7O2nyCXeJ0xwMJpvprR mlxC7Rt33DR69IVaaZaXuhrCfwppGa0L08OLGcASYu/RYkj9QoifvXVJp8sLAiko5lK1wcbAUxx3 zrUyGGgGv4iRb5ipku7KyJE5FbGFZg405xJye5dNdFaz4lwRv/H95Ye/AsAYnqhWNqczDaOH67VN idQSDae3E5duAglMz6EUpiLLuu+N1asl3yspdaBcLHoNxcYwK22IkHIjAtDgwHDeq7uW1R6L5wO/ GAQWkQZenpkq+74gKvoN32gAhNOJ+pIo4bhRy64rlXBsAL7WoWHd5kaSlrV3ZmrWmz8ylhnNJH/W Gi/mZ1+amdyVawO4IxI9XCkJhgZaCifGc5efnFVrH9i8HnkQeDUM8Pjh5g4QsZGIiGV+3J6tV0wN HyrPTWi1vLOX0UpajvIbo0df6Nq8WwhBhFPT9ZqnBBEz4tHI1ZteYdL/2tjZYz19PFCGPcVx97wJ lghjeR1z0J+ThRodn1LKYEuH3ZNZXvj2KiETWWfDTv/ky0QYr1X6U2lbiBcKc5uS6dMMoDSu3gEG oi4Gj4Oo7PuPT43ty8+WVAAgMCyAwOiwwksI4QhpmNvi8bFSmcBKm4lKpREEaFYLcdn3lGFBgsEp NwIQMxPNi/OwxxNgC+G4bvgNms5lLhld9FRXKl0rmIrvhd18iZrRMgb7Wr+Qn9mVawNzmxsBGEQM 6px+8eAl7zsyqSMWtZ1RQrigrHak1mUHeIU3HZpRC/6fdFRYK92mvW9ba89W213hjAOjlVaBChqj R/YGfsOS4uBIWTaVKHHj9vU6TyVsTW7MOdvBS0GEUsOkYvLQuDowqnyNre1Wb/YCU3+I5Fs+Hn7w A1XwGgRRVWq4UjrtLQ/zQ4WAJTE2dbAwd/uJw49Ojk/UamXfL/m+p4K6CpQxAAsSEWnlYrGMG2mP JdwwiZqhmadr1alqNV+vzTVq4Y+JkHLcjal0wpKuJaNSxqSVsO2EbTuimX1tmMNcCW6q/mEFHDFw SbYl6bgmPOyNsSAZw8YIxhgALfPRAACp8ggAS+ClEVXzlresCVQzQbrldaUCPXLwtAGQiorVeh+k W3si8fTUqYONapHZhLHeBb0o3AoKUydLie5KXRGICJFI9O071+tckJu2Ol95shZmn5+DI3QFMCNf Mb5mx8K2Lrst+WpN3tUQ2XKViGdMrQjwWKXcFo3ZEHvmpvsWtCBmOHao7h+fmnxkYuxwudhQulnN AxgwSMRsK2I7acdJOK6YbyW/IZ0ZKZUA9o0xp9twLLxEsqScrdd3tuSuy7b6xnhGh3n8IJpo1A6V SxUVrJZQYph7Uqm6UoHWS2pbwH2xhBAybHrX7kbG6zUhBDO7tVkvlrMknj8VvGHAXVhSwunDOdep R/QrvOljhz0grH5EKrpW7w83mujbds3CVkBCSMshIYiEZUcsOxJNpE/OGkEEghAyHnVvuuRCej8X IxUVjgXDqPq8xphXg2Fs6bC6s3JTq/XGATeXWC/qD5G89aNgJqLZer0WBALwjTlays8TLMHzQUAQ vDA5cbhcaCglQlWlWTBGlhB9qUxfMpVyXJqPJTGQsN2N6cxAS2vKcaSQi4vlAUiiiuedLBYeGDl5 x6kTHpuuRKo7nuiKJ7qj8StzbR/q3fim1g5XiBXP3WAgKq22WGzZCjMj6ThNscOIhN5Cw2C+ut8K R+wrjBX04gsD1RzZOu0Ar+SmjYDHCybsb6VmD0n2z0pL2Y4NvQPXpFq73WjSctx4us2JxoW03Gjc jiRny1paQggRjUZv2Lou2n+IP7u3HBorNY9fAe0yIxMTfS2yt0WqNU/1uyBI3Pj+sCSSgMOFOUFk kdgzN9M8q1VKnBgBo1Eqj5ugEShBtCytpzUWi1oWLw2ihjtEezRe9r2G0gAEUXRRdY9vjGbDxHWl 9s9Mfubgy3edPFb2GkopJpBhS4ht6ezHNl6yO5MN/Z/LRq6Z22LxmO3MsxwDkEIk7HnRRpT3Gwst 5ayoe/NWJxEhZq55p51ORAgMA7Al1ug2+WrwShhg78mmXav8OldHx448rVcLUi6C7UQ6+i/t2HBZ 16bd6dburs27c92b3Wi8piPSklJatu3YtvPO3evCAL7i/3x7YXAsMMwg+Ipf2SmcC0WPFwfJWz4S xljn6vWZRj30uz82M9lsG/rcfgQqkkmPTk4RLWuqgIhlxWx7OXUyLCGTtlPw6hOVSkMrYwwDgTKL ajNYQWgDbZhBZa/x8Ojw/3h57z+ePDZVrTbzAZkB3NjW9fGNWy5LZQyzmrcKQhCwIZWep2UCqC0W dxaSSbWa9X0CGMxO1ETTQtA1m5xrNzs9i2yqUFSB5oOY64BXct/5YyaMV5l2LWLtH3vhobU7Wy3A icScSCyWbJHSisRSyUzrZIkjjmPbTjQasSWH2ZcXHF94rHpqVtcDaANbwgCF2lnS2l4PSP3QxyHD Pul8vJiXQlhEQ7XKTL0GIVCp4Rv3oVQN/GBZvhwRpdzwaLB5GxQgIO04Ccsqet7h/Gw9bMkhSAB2 JIZQPBORHQEbAzBYG2OYmbkWBHumJ/54//NfP34kYDTZwBhXWm9o7/53mwfekGvfmkh2uFHFJqzx cy1rc6ZFSmFLkY1GW+OxNjcS2sKTXoPnLRlv203hCLVBwhWLi+INw9dMQOe6HZX3SozgF04GANgo v1qIxprDPTm4p61n6+J2JueCQKNQ00TCsgSAW7avi/ivefzMUFD1mAiGkY2KuaqZLOrerKXWW495 1Ujd9tOl+z5PQNn3x6uVjljcIfHQ1MSH+jdBCoyM4zO3SyGEEEbzvAEA17Iilgyrm5lhmDO2E7Ms T2tP68P5mbpSYBICUcvq6tqcv/nD0UiCpC1iycrjX68efhrVAjMTGEwGJnRqBkY/NT2+v5h/Y2f3 da0dKceBMWAjSOzK5mCMMsYz+uVS4Vi1POf7CdfZaueUNpaUlybTcTv8Pc/6Cyelc/3Kdy5Mdomq RpgomkCBCP251xMDjOQ1G0PC0rVZJ+WwMURCSmt2/HilON2z9SrLPicpToSpogZjIWfsXbvX5TCc P/lOeXSuaVq1xMWWduvp436pzhXPrFN45QIi+eaPlB+7gxtVARzJz7ZFY4IoYP3g5Nhtnb0AYMyu aGJP9fQhK6He7WmdtO3AmKztZBynrnVDawYOzE7VlQIDAraQG7s3Vz/yh5Hoaddz9kd/1XnxwZmH viwqeTQqzEaAQm8nQSiYslf/3ujJxyfHt2Va3tTW3hNPzlvdZAlhEV3f0nZ9rq0aBCeqlUmvodls iae2pFLNfrrMRytlSQRmb9NVJrNqvauZd7BuaV+vs7zOuyj+6KS696UGGx3U8kFlojMdpkBzmMCj VZCfHBLSWjHdbRlsSYfHA3/emozY+IW3XIDSx2V46pj/j0/XQtESsbGl3U5EqFBjT7EyHCZgvc5h tfbWX3oYgDbsGd0ZTxhGSfkNFfTEkzBmSzL9yOQozSvYBLKlyDruzR2drU6UCVWtNLMgOjA3nW94 BIDIkaIr16k+/qdBbHmjVadzk9x2Y6E8J5UPo6GDxVnJmlkb7Sk1Wa/szc8eLJeYjSspLm0IARJN 3V6K9kh0cyK1JZFqcV0wFqj/heKcTaRjmcKHf3e11urht2MFQ8DNlzib14cHzpsBnjzqPXsiYDb1 whj5pfb0whHk3DywUcp6JV8pTDuR+GptUQAQUKjzqTm14IB71+WRazZdYAPAMP/K7cV6ABAciaQr +lulMUhFxWRJN3xuTcqzNC58HcBu3+CdeEEXJolQCfyk4yZs2zCmPa/oexviCcd1BxKpA4V8w+jQ od8ZiW3LZDVEUQcN3XT1HJibma7VCAwSjhQtuS78/N/o6MpCx40mGk682rYJiRZiA+VDBwvB8zAW powJtJ6rVweLhefzc3tLeV+rnOO41jwnhEVqxhQDH2BLyKFq5btTY64QRtozn/grrJ46SYCvMF3W zDgwGnxwfc5LpfOtM/j0PeWHD3oAZo48Hrf9Ta3WMpcIkRDSCtudR+KZXNdmJ7LC0IlwZEJNlvTC 8//yI5kLvtN9+p7yI4c8ZggBS9CuHjvmEgNSYGhGDc+qloTc2eOc47l9ryFYBWO//Y5Qwgshburq FUSeMYqNr3VXNHZ9S1uLbf+vgy8XfC9m2RtS6YTrelorYwggopdmpmbqNQFiwLVky6bd4uN/ctbn Htn7QBi4pGpejh22Rg7KagF+Mw1+cZpQqAKE1kirE92UTKQsW4B8Nr7RKcvpjSdmAn9/qeAIwcyz H/szk16r2psIhao5MqnqPkuJn31j7P1XX3geOG8G+PjfzU2XjVH+9OFHerL2QniCSPAZVXZCWkQi lsq1dG5c3vKW8dyQ7zWPkETExj/9Xxc4AW40r375q8Waz8xwLMrGxY5ua6GyjoFnjvva8K5eOxk9 e7n6aw5/9PD0X/97AjEQta1rO7oB1I3WzEprxZxz3YxlD1crUduO2TYYio0A1ZR6aWaqGgRhHU/U ttI3f0i+9ZPn8tBaeW7owPct6/TOLCr5rkSqceipYOSgqeShFQCm+VKo0LQNw+zERCJu20nLsYSQ 0oq6rgUwUHrPrwQbLz/r0wPNkyVTrJl81QiBb/3SOqRInpcKpA3//aM1AMqr1PKj7WlrITwhpLSc MEFqSY83IjI6KOcnaqU5IaTlRImICDWfh2bUwhnO66H//PqdxXzVhK3TJNHOPsssKgaWBFsiXzUV j9fPy3YBIVM5kcg2Dj1FoMCY6Xq1Ix53pRUm1Rhw2L/WtW1JzRitNjxUKgzOzWhmApGghO2kPvr7 8pofPseH2m7Ub9S8emUhpScQsufad8V2vTlx8wejV77N7t0uElkSkoSAUWT0fGdskiQcISO2HXOc mOvGLIuE8LdeW/zAf9Ot/ec0ZUGJiGhNiFMzGkClYS44kZyfynFqvkNdUMsLKRZcKGEMRasg1H8W 93wOP0vLDrxaYXoYQCLTBka+qolO14u++UI7QJ847E0UTRjuJUJvi7QFLW7RbBgdGVmom0AjUPwq +y5eHCSuf28wMljb+12CqAXq6Ymx3a3taTdikx2DxYzwSD0iVFUwUa2OV8vKmJB2LUHprVe5H/kD iPPj9q7Nu8vPnT5aj0jUynOxZAsAK9NhZTpil98GQM2OBpMngqkhMzdORJF0LlYvRUf2R4wysUx9 +xuqG3arzq3nO2VBkJJ6WuRoXt/9fOOjN8Vi7oUMip0fA5yYblK2apRte6E3siAhxP9h773j47rK vPHnOeeW6UWj3iXbci+RW2JSSEJCeiMk2SXAQiD8llCWtiz77lJ+EGCpLwsJLAQWTOhhw+5Cek+c 4hb3uMuSrF5G028757x/3JnRaCSNZiTZcYK/H32S8Z1b557nnKd+HyLZXJ9iUlRYcG4ZOpK0jsQ5 R0LGkjllFgiLa+a5/OVHT8dtlzgloErYGKKTmxpyDouqZMMSMi2hNuD1RfAdn2XxMePINpvofOfg QEBVK5wumVIJ0RIiZhhRQ0sYZrojBiIBcPgr/Df9I7SeM4srEkJqW1f1HNtlt3JDJFoiYgtALqRQ nRSqcy47P7uFAcQB4pYB0pymbcahKSSdHGWA8Istyb+/pLTWWIVRmgAczwiAqScclCRNdKuASBAJ EkSgiDJnjHMruwjkkh8iEsvQhOCCYzSnr/r5bfO8rj26V0sawLiQCAiABZVSgRpIRXrDjH4b5e/9 WvTxnyWe/TUAIELE0COGbmdJIILdgdA2fAmAEqh0X3aHsurSuVzRF6oZ6TumpxJ23ZOhpWY8ZBxz G/02VBkqfWQ4xv+8S7vzre7CPX5KQmmrScdQeha1RzwhaTM32+JOCI4EqSRLsoNQiVCJSoqkqJKi EiIhIYaeBMFThtBzCPzeumSe41+/eCEh0omGEPLQkJcUkaz0RoLvsvdXfeEv7k03oTsAkiKoxBG5 EAyAE4qySvyV6qINgfd8LfipX89x9NuoaV2V7W5o6knLzK9zOqXgHFoqJNuw+fVL0/Z4BYCOIWsk XgIbR2krwEA0fepg8wanCFe5IpaREoIbqUTubvaSQMkErYbKsiQ73L6QJCnhKMstoVzXMp/6zwuH dYOByQRFQIQFldLs6EnOcBBZ9V31YfdFf6sfekXv2i9Mjbj81BMEAClUJ9cukspq5/FyDpfP5Qlq yRgAmHqKWUaR8f55gQBwq+hzkrgufvtK6t1vmZbV9M+7tDIPedd5xTpMSxAAwxIJLev0BZ+/vLa2 Ojep2DINu+ujqafsD/Z2QiUqybLqsuNiAuz8n/RRCyrpPK5oAPCrl5IWT+fgtlRKMi2NmuqNBeoO uNrf7mp/+2m4Vt2i9iOvPilJimVquX6O0wMuoL6MHuixKIHfb03esmHqIX6o33RIeEoEYCzJdWs8 EOh15HN+ZaeEKenfsmBcxLVxC/iCxfPp/zkxZA3HuGkJiYBbJbV+Wrg50YEM3gAAIABJREFU11kU D1lx+EN1sfCA3c2tmGyXeYQQUOGllFgA8NuXpxaAzmGrb4y5VOwNs9pgUc6uEmyAcIIbOWLvccwm eIQIKXOCAXDugvlcSX+/NanbVaSIi2uks6N/flHZuMR25SWiI6f/6hSh0keEAN2CR/Zqk3fY2Wla DGIp8UKGs2dGlCYA2QFPEJzKLFlAwolxjmVVgoay/FWIcRFL8cIs/lOCcbG1w7Q4EIS6AHEW1w7+ dcSZX5CQB1lx+MpqOOemXsgSPUXgAuoC1E6+eGDbFDewqyvdZPalo8Xa6KUIQDJD9wIgS6hQBABe ontFCIgkxyv/1zZPMf13j7LNW5LfeTR+rMSmIL95OamZAgEcMjaVFyKZOUNw5udfTEZl45LTaf7m QgD4XdTvJJzz3lHrYK+Zt8OxAQsy7DWD0aJcHyXYAOHE+OtyyoAIqdhYLDxgaAlZdTrdAac3WCD9 kzGLM8s0jXCUoZRW4KbUfxpDtCfMDvSaB3rMr7zDX1ecMgcAD2xLcQEEYWGl9IYYWpS88Qx0WXH4 QrXMyh98c4eWjPYd3dl/fFfvsZ1Od4AZSUqppScNLREP9zk8waYVb11/7UeqvTSShFjf/kf2rltS O+4/HEvysaSwsx6Thjg6aFX6Zh45JQnA+LvyqEQISMXDejLGLMPUk/HwYPqMiiqr6fEtOLc9Bpwx AEAkuiUSZqMnmN5hTdMUDlCC2FRODw9YI3F+1+bwp67wFmMoP7o3ZTIAARVeEvRQqxQO9NcLjAPB 01dhPF/wl9cNdh2cxxPuf+l/jjz7n20tNS6X6/I1K0OX3tLX17dt27ann37Ksiyv10sIiY+m9j/3 6/3P/fqyO++hcjszUg8/v+8f3n5e9iQnhtP6glNG3RLHBqxNRRAslCAAw/HxREpZQtPQLNOwTM2e DOxsUEIkZpqWEYaJMWBCqeCCUIzGTMWT9hERhJBnahn1OYkqockE4/D1v8T+uD31jVv9SkF+4N++ kgIAQKiQBhNxv6y6piMnPaPwRhv8AACq06O6vKn42Lw4gvb+5RsfvOWSi+9+Yspv+3p777jjA9t3 7vDawwbx8R/ftebvHyaKOzxwfMeJtVkt+tiAZWe+uB04lhrPWiiMEoZITBv3gboVBCSWqQsuAEBw zizD/i+zDM4szixmGZxb6T/GOLeYaSY0JinpKMbK+mnjXxVeYliCEnTIKAQcGbD+7iejBUyCAz3m YJQLAerYroHju47vff74nme7Dm4dG+wuslr/9cIbIQcvH5xzX6hmcvb7LFChvXr/PV+6+OKLxzfZ LZsyfzW1tQ89/ND3v/c9Kiki081pZOtPKCWc8f95pT973L4eEwAUCT0qAkD3aFE2QAkCEE2Nc546 FJQkxe0L2SnQme08/4+n/9IiwSxdOEmGl3llw7QCYOv9uikaQlKFl3ABkZT42P1jv3l5aufD/S8m AcCID7nYMJEUO389GQv3ndh38vCOE/tfHOo5Uqq9fnrwRtDU8kEIcbh8k/PhSsXGFvzAzRfmL9ST +bSEuPW22z796U9ms9mHDz8HAIDkhVc7szvu7jJtmm5FQhAwlhSpItqKlSAAST0bBhYKRZFhPpyS /TNz8+PCAAAmF4yOxy+W102rgFX6iCwBFzAaZ6salbpgunL3/heTH/1lOK5NGMqjCb672xQCMLzf oSr2dS3TkBWHrDgIlbRkbLjn6NFXnxzoes00pvAfv4441QuAocXHBjr6ju44tuPhkwdfGjl50NCm btZ2mlEfpBcvmyajIdNuTOSoiNdec01DQ4M9i6Viw0bPy4AkMda/q8sAgAM9pm4BAARc1B6cuiGG YjMvAiXYAFpGAUFAh4w2aWNlw+KR3mNRZlmGPuOamNAYkcelZVHVtCtAyEM9KgknWCTFGRdt1ZIi YeewJQQcH2K3/XD0E5d7Llyi2qVeT+zXECEx8FrIIQQSm3qSEMKZZTdpkGTFDt2HB7oiQyednmBZ dbPTW3YmGAnzvgAMnNjTf2R739HtkaHOxNiAsCnOM6y0ACCproal5y/acE3j8gvn++IloL1pQmdI IUQewThimorC5tetqam56sq333PvvaqiAIDet4O21HCL/3nLiTWNbXaZrgAIuBEE2Pw3WaW9AEoQ gOyCItEJry1Uu0BSHMM9RyczoU94HgDNEEogXYKtSlA4UNUUot2jTDdBt4REsLmcuhQ8OmjaLbC+ +1j8v3akbl7vXNes7OgwBLNEtMtZ4WCWJSuOtPaVIwn2Oe0Rn4qHOw8OOJy+8rqFvlBN8b/AqcC8 hAJGeg537n36xO4nRnoOp/l2MB2l4UJwzpPJpNPprK+rT2p6WWW9y6kOdx2oXrBuynLt04Ogc1Ld iBCQuXMbeSJx6623/vRnP+OMIaIZ7cVEP/U1PPHS3g9e4n/+kGQnzKkSMg6EAGMwGGXL62bIsyy5 CF0AuBSSV0ls60L9J/aZeqpAmlRKZw41veo1V8xw6fWtypYjhgCIaaLMjVxAhZe4VeXIgBVJcs7h xDD7zqPxS5eqmgkiOVjuV2SKkuw09CQAEELsZk1ZSciFLDssUzt5dKd3uKq6ZUWB8MVpwORGjEWi c9+zB7f8ofvAC/ZkiYiEUiEE59w0DF3Xy8vL17a3L1u27Prrr1+4cKGqqgCg6zohZGA48vz+ka1H ugMV9Ypj2uTKUwSfA6oC8pSzvv0h+5X9aPbG1tbWxYuX7N+3l1JqpiJSvJf4GkzDvO/hw1FtqRBQ 6aVCAEGgiBxFJDl/K8A4k6aAKRUH1elpWnpu/4kDWmKMWebk1UAA6AydUnqotZTPcOkNLYoigW5B JMlDbgIAXIBTxlX1cl+E9YRZQueC4RMHdIIQKK9xDh22ODf0pCQrgnMkJJuzTqlkF2pmJcH+IMuO RHSkY+/z9W1r527SnU70HH7l8R9/zDJ1RMTM+2CcW5al6/qa1auvve66t19+eVtb2+RjbTGoryn/ m5rytW2j3/v9jlDdIqc3dDrvv7VSsonRsyM+Tx2CiTKQ/eqqq67cvetVO0DGoyewdiMT4uHtI/5W QIBKP+ECKAFKwLCK6q1drBJs2xN2uaM0fXytunlZed0iSVFVl5dOLAUyLAGSM6t2L66ZQQACbuJ3 EQQYS3KS4aOxraLaAD2nSVnTqPhcyITgAmI6srpL/BUNnFvZrGzV6SaEUCoJwZllpOk9cqITQnC7 zO/k4R2R4Z7Xy01U6vR/dPtDD9/zIWYZSAggcs4557qm6Zr2sY9+9PChQ4899thHP/KRKUd/Htoa yz5x27rY2PAsb322qAtKiDidDTZ57s/i4re+VdN0ABCCs8SgRIAJwjgXAsrcxCnbdItACSBCTJv5 hRYrAD2jDAA4M4xUxCnnJ0LnwhOoqG9bpzp9VJJVl1dWnVRSCJWSRrrHgo2mItgeL16qAkI0ZXci Gd9u5zv4nWRtk9reqJa5CSUgBITqly5Zf2VF3ULGLM65nkpwzhmz7LI1+9jJbcvsr3qP7zm+59nR /o7oSJ+eik/X1/5UoKSUuMHOvc/88p/toW9vMQxDluW77rqrs7PzM5/5TCBQWnCqtdZ/2+UrSzpk 7qgNzjzwJitIALBs2TKXy2ULhh4bDjgtBGBcuFVsDKVdhQLAblkUTc2fChTVbAOFpMInw9ZxzbNC cUyb9E+pVN28LBkbDfcdtwCopFBCWMpU3eMuoKaZVCAA2LRQ+cPWFBcQTnC/k+Q9jQCwuPA6cEW9 zAVYTFCCABiqXRCqXRAd6YuO9unJmK7FTWOc+3vyrGOLBKUSZ9ZA10F7i9Ptp5KiODwub1BxumXV RQu2fz1teOrnn81+tq3biy686Je/3Kwos0xQI4RsaFWYgGcPnr4qR88cmB3WrVu7c+dOSilnplfS R5ESWV5aK7tyuh7KFAGEWUSQpdiXOhzLaM/cQmGdPPKq219eUb+4gCfR5S1zecuiI32R4R4ueMoE qqZdQE4Fi2GlbauW7SbsI3EecE1dfiAgnU+WV1bmC9XYHh7OeSo2qqdipqGZeio62keIlL3tPD4v SiVEIimqnkoAJJKxcHiwE5G4vEFZdbl9IXtBo7KCSObLi1q8CjTQsSsR7kNCOOcIwDlf0Lpg8+Zf FBj9U86jeUDEc1uVAz3WUOw0KYHFlABOd9vnnbdp27btlFIAiA0cdQVWKd5g7ugXAqZt2jUJxQpA OJHmOxHMBBCEYDI6cmLflkBlfVl1y3RHEUwPxHh0FCMDREqvAMWzXbeU0+NDbCDCFlXLfFZRU0KI 21/u9qdJxTjnnQdezBIcTIYQXE8lZMVhy4atIyVjYYiFx4a6ZcUhOJcUVXF4mGUoDg+VZQCgVKKS Yne/NPSkrDgkxaE43JLiKGbpKNIRtPuJ/7QHtK0fG7r+zW9+Q1XV7CjP8yTa24uRAULw/DblwR2n I0qY6QuTj7ynmA4bN27QtJSiyAAQGz7Z0LQ+0Ng04QBMTyrFiFmxApC1Jyw9IRhlTLLlITzQNdp/ wl9RX1bdMvlNpynyABRXUAm4s3e5YCYfaBYbWpXjQyndEtEUL6mz73QghFQ1Let87RXb/pkyeEcI yfNiqU43s0zOLMs0CCF6KqGnEgCQjIXzzpBrbEiS4glWeYNVisNd2OOe+Z1mQP+xnbbPxx4iTqfz nHPOmc6XAjnWZOHT2mdorZD8TowUoTfPEdPdjR2tI4RMaf5msWTp0uzneLhv4fJ1eTl5CMAFAIJa hJZR7EBMmbZnigtuESDMNNJedsEBIDJ0cmygyx2oCFTU5/oT7URfxHSjm+xLXlBV7HXbm5XfvpIi iL1htrhmfmpcJNnhcHkLLAKTYeppJhz7EEJIVndClLL+pYnCQITgkeGeeHjAE6yqqG8rUEdS5KAz UjEkxO6cxzlvaWlxOp228yo7dxY55eciTeuNsLZZeeq1YosJZ428h33mmWcee+wxWZYbG5ve9a6/ dTgcU95/dmNlRUV1dXUikUBEIxWZMiPV4gIEuIooCSw6DmC7VAUX3EKQADAv4IVIktGRZHSESrK/ vM4XqpNkJSvGmjVBpLN5dTNiSY2kSqBbMBBli6rnxwxVHK6y6pbe43tm3SQTcpaOyR9sZOVBCD42 1K0no/Vt66aTgWJWAEPLEHQighCc8/r6ephk1mdlAIqY+yfeMCyukU6DAOTiySefvPPOD3KGqpPo RuLee3/84IO/b2xsnC4zwt5YVVV17NgxRDRSsanOioYFgOB1zPx+ix0BNqky5wxA0OkPshWAscGT nQde6j60PTrSx5iFALopSI7m53UU+2IowSU16e7W/RFWksewAPzldfWL2q0cPSc3PjAvYMyikqI6 3ZxzSiUtGes88NJcvKtaJq87025ZBINBe0uewjCL0Q8ABEGVsK3oxXkuyN7Zz3/+c9PkjUvwqg+y 6z7krFh6NDqW5pgqEJaprKy0c4S4ZVhGPk0d48KwBBY3zIoWAEsAgLAMnOaHzZ3/kCCh1DK1oZOH T+zbMtD1WjQSFjmPPWOGRi42LVIkAoBwcoTNI4GQN1jVsvwtlmX3igbGrPmVAduQ0FMJ2zQihJiG 1rFvy2h/B2NWHrOaHdkoDM7MTMc6bjdo9/nSfY3ybIBiTMnJsI9a0XDKBUDktLM8fvw4N8m6KwRB FKD96p5tK1YthUzef94jZB/TXiLsfZKT+ClMS1gcsLjWwsW+cptcjVk6IdO+qbSbiAsA4Iwxy0y7 UKLhsaGeLGkuQagvK4Gg+LyFiiwhAhhMDEbns7Wj0xNYvO7tbl/IXgrmpcIjD4SMGwaEEELIQNfB E/u2xMMDpqGxHDVyxtHKObMNRIC0FmSadrvOqUfJjBBCHDly5MMf/vB999134MABIQQlUOmlxajO c4R9y/F4vKenN1RLFAWSCau97ZaQvwUyy1cBU3jp0qXZ9cGcmN1tM+/bMlYbmL+aYM7tVAj7hU3x A9kc0QDAuQUTB5IAMC2mZB67JlC8lxYAIOShrRX0UJ/FOJwctSq8yjz6KSiVGhavs0wjPNiZGBsy 9ZRlGbbc2gvCPKZM21YBpRKzjL4T+yRJ8VfU+0I1isNTzFV4pvSUZzKcWbrSulBScQEMDw9v2rTJ 7XY/9NBDqVTq3nvvvf6Gm+yWjAf7Ti3xm+0dCYfDmqZVON3JKDz0M+2af5/Ab1fALvJ4PFkBsCYW eCBAJMkJgiKlm6uOJniZe9qft1gBQEIAOLcMIikEp9CYbYZ0GNdQx3MwLcY5SIQSe0NbdclMoNes cR4filuG0C0YiLBK/zx3tpNkpaJuUUXdIvufjFmpWNjQ4loylhgbsixjXsLAeRE3Ifho/4mRvuNO t99fXheoqENS6CoZxYank/sR7RVg8j5Q3Drw+c9/3u12S1SyLBEI+j9y10evvvpqIZSWilMuAKNx XhukPp/PsliwUvQcFUZK6ug4AnBFdh8xlW1jP5fT6cx+ZRr5RYJjKY4I1T7qVPA3LydfPKJ/9Wa/ 1zm1DBQ7vaXjrIIjoqw4kBAkxA792Kk+ZOLLQyRUku2mAUBkNVgPGc2voRT9x8aFi1WnDKoEFhPd o+xUr9CUSp5ARVl1S23rqkXtlzYuXq+6vJZl2ClGuZjjhexcPUNLDHQdPLzj8Y59Lwz1HDG0qcs+ JdUFE411XTfSJSOzwmOPPUYpVV1w/V1w9QdZ3ULpD3/4IyFQ6T3l/XJsr7rf76+uqiZEAIDDKX/j G98EyMTJEIUQeQtjVqoDgcD4jz/x8S2eVoFWNshciAd3pPoi3DG9UlesABAEJITIDkAiYFxDyNzZ FOfhjBFKa1qWl7eul3MShwp3wtveYew8MUVSyo1rnRJFIcDi0Ds2n9bwjHD7y5uWnrtk/ZWNi9dX NS4JVjX6QjUub1BWHIxZbD5oYgkhSCRTT430Hj+6++mOfS+EBzrz9lGd3lwNhxDS19db4JyFZWP3 7t3xeNwyceM1QlGAUNh0Hezfe4QiSFQEXaf2982W11ZWVaaSwl+JgiPj/K4P38UgfP31Nzz22GOE kOmmmLa2NsvK/Ow5z4gIsRS3GCDCxlblR08lErqo8BB5euqBold2AQDgKmv0ljcuWCAbumbqScvU DT3JmZVLk0SIRGVZUV0Ot191ehAhFplQmlnln1bqRhP8Gw/FHDJuvjM/O/+Gducft6UUCUwuekZZ lf900ynkpVRkkYgMdx3aNi86EqYNZcUy9KGThz3BqtxKHYcn6PZXJmPDYDe/IGR4eBim1/sLh8Ze fvllVVUJgZpmiAzD2BCUVWNH3wvD/T3+iroKLw0nT6EW1DXKbEqEmprqA0ePhapBcFAU+Q+//W/n sgeeeVLcdtutMJUiZ4eKfT6fbf8AAM91PyIMx7mdV3Jk0HpotwYz+YKKfW1ZNmdEpJQqDleR1XSY daFmtlRMv8JGkjxliIQufrklkccBTwhe1+78rx0pUxeMQ+eQtaDqjCA/dPvLAxUNY0Pdc5eB3Iwg m38zr1StomnFiT1PZbMhBgcHNU1zOKYtZ8urLMlFOBwGwLJqIASee4CPDQl/mXPPnj8i+EGIcxcq hwdOoQCMZWg2V69e9eyzzxs6qV2A3YeF2y973Kokp1KpFGSSI2yPUO7huarRhC8ExDUuBNSX0Qe3 p+xvCydEFKsCpfl/7N47JVVyIxgmCDF+owXyQLlI+wf+vFu754n8mNGtG11uFZ0KWlz0R1hCF6d5 EZgOVU3LnG7/3HWh7OgXghNC4mNDeTvUtG2wPyASRBweGdm1axcUdPlPHj02LMtCALu5/Gg/CLBu /5u/s0c/ANQFTi1dQG84PX+fd955hm4c240brsLzriXX3kkGugCA21UNeTeffcxxdzAA5vT8Myxh MqAIcY0nDUEQCAHnvAgAyWgc6ZKb4sA5N7VkIj5mGenyTLmgfTUc47Zyn9DEQ3u0nz6XyNvh/Re4 7VoHJuDogHUGsDoAABBCmpdvKqtunqMM5I3iySGeuraNmRcvAEBV1e3bt083xKGgL8ieRDmD+BgQ Cog4Gh7N3eGURgMsnk6vvOCCC2SF7N8CqTi0rgSnBzr2ocX05ubm7CPkurbs20ZEv9+flgekmW8h qnGTCUCIaUIIcKnIBXgKxoOLHUFydseCPwtjVio+NjbY3XN01/E9zx/f8+yJAy8NduyODxzhlgUz uYCy70uWAAH+a3vq589PkIHz29RF1ZIigRAQ1Xjf6bWGC6OqcWl53cK5yEDeo9j9iHLh9IaQ2sRH AhFVVX3iiSdndARN3kEIUVlZKUAM94DiBESQJGnz5s1jo5FssvKsnUtFomuE2Ze4/fbbLWY8+nPc 8xzsfh73v8TLQoH29vbCy1q2BCKrJRLEoShnHBgHi0PIS/wuIsQ8rQDT8XLGx4ZOHtnZf+JA18Gt x/c837H3+Z6jrw73Hk1GR2yyRILEYkzK3KXfVeiKTSFqx/AkioSCAPjDttR3H50wDj58qUeiaKd8 nxi2Jjc/fR1RUbeobsEa21s6i8PFpBT2PF5H1eWrbFoGQhBC7XmxsyvfWTQZk9cBRGxvbzcMAwBM DXxlIASoqvPt72h7btd/WKaIplipqUSl4tigZV/i3/7t39xuN5XEwa14eBsQyi655BKYSQKzRrDs cAMAAsQ1Fte5/TngIktqFJvO2TdNBMBGsQKgyulc/OyvYhpaZLhn6OQhLRGJjfYZWsImx0Uk2awH ITi3I2JI7cNrCvZkr/JTVU5fpa1Ktmvhn9ivf/q34+OgykevXeOw7UWTwfHBM0URsuEL1Sxcc7Gi umYnA3lM0fFIvhlQ0bTaTgeyzYBYLJZKpTI5QvnTfBaTL9Te3q5pmiTD0d1w4c1ECCAE2ta477v/ a1ddefVonBVIeZwXHM0xsu+7776RkRGLGbYydvfdd09ZHJP93NPTm0ql7B1cvnIAEAA9YW4yUGWo CdBVDbLFRUIXAFBb0J4pWgAkzDECAACYZaTiEc6YPdxt9k/OJ1CPIBLOQXBBaHrBqvDNcMVFVTIC xDRR6SPL62SKIAS81mvd/IORSCaJ+vZN7pYKCgBCwGiCRZLFJgg55rkb99SQFUfzirfIimOOkTJC SGKSHVxevxgyWRWImEgktm3bnmsU5qHARN7e3g7I972A3jJ45yfJtR8ita0oON25c2dkdHAud14M dAtG4unfZ9OmTVu3bn33u9/9sY99bNeuXdXV1bl3nh332S07X92ZdgQhOjzplNiAC+uCtK1KXlgl CYBwnHEBMoW2gj3YixWACm+mqDyTomEHv/JYRmweXJgY9meARFbtPQuvRwBw3kJbx4Vwgpd5yLoW xakgF5AyxN/+cPTJ/enEj3+5zmcTy5kMoilRpACcto4shJCWlRfYudBzOY+h5bsBmle/TVbdgjN7 apck6dlnnwEA212Yu2fWfJxOBm666SbLshBh97NAJZBVYBZERwCIiEeGToNt9VpvOpkPEdva2u6+ ++6PfexjWf8PTOPABYCtr7xib/eF6rMbK3y0KSQF3IQLIABDMY4AVT5aIBEIiheAgIvYftDsykgl hcoylWVMG+YkKxLZCikkRCARQIEo9m7BgjYAZHrGEIShKAcBqoQbWpXaQLrhxXcejX/yN2MpQ1T6 6Oev99qKUOewpZtFDW3dglO9smdBCGlZcb7TU5p7NO9tI5JkbIJzhkpy3eJzITO+FUX59W9+Y39V QNimHEbve9/7IpEIobBvCx7dBUAgNgavvSwQeW1l8DQolnu6x+OnU978dAL80EMP2UXxre05uUMi 3RodAJiAkThHhPWtMyz6xT6lNCnwaieQVTYscbj9hEp2dlD6LyMMwianZOOkWkH3DDNLlZ8GXYgI gzGGCAKAC1hSI61rVSkBLuBQn/XOe0b+76OxZXXy1asd9sb9J80iR/Zpjp01LT3X468ofh0QE2Vg chNyAFjylnfYHxCJEGJ0ZOSRRx4pkD88nRngdrvf//73a5qmOmH7Y/iHb8HDP4Nk0gxVlLe0tEx+ 4/OOSEok9PFc8SKPOn68o7Oz096/aeVbJ++ACJEkNxkgwMVLZyC9LPaquimEAEDIe5VOT6B+UXtN 60qnJ2hbwACQlQQAsPiEYHUxVWpXrnYAgMEgnEi307M4eFU8v83RUEYtDpzD4/v16//vyNbjhkNB REgY4tiAddpm95LQsHhdSfZA3lCdbAfXLtoQql9iVwYTQlxu9/e//30omPwznWx897vfvfzyyzVN I5RLCgCa55177ne+9W2AGbyH84WdnWbhEvgssvv87ve/s4PfVFIqGpdP3pMg9EcZIVAXpBVe8uxB PalP++MXO2Tcanoh4mLSOg3g8pbVLVxTt+gct78iKwYAgIQIASA40nTleDGF+lesdCACAegaGR/T AoBxsbBKOm+h4nOmXVKD0XTADxH6o6xjyDrFvrtZomnZebn/LKn0LBUL520hVFp6/q2QDhhTRNy6 bVt390mYZqAXdmj+7Gc/++fPfW7BggWxWCwYDP7Dxz9+zpo1IIR6KirDJt3I9g4DppfPCYdmrILf /e53dhCg7dwbptzT4jAS4whw4zrnfc8m7nsuXuAXKEUAAGCSny4XqtNT3byscenGYFWjJKtpl6hg gOM+Cr9z5hEa8tByN0GEkbjQJurPBCHoImub1VUNss+JDhldMqoS2j3FkoYwT20e+ywhyUrdwjXZ EuQsH6MNUjCJiDFrbLA7z5CoX7rJHayxia8R0eFwbN78C8w0AZg8mKbjWbD/9+G77nr88ccHBwd3 7tixZMmSmpoaMZXSOxdYHPojLKkLxkTuENJMONhnF/oUdbnnXnixt6fH3nnd1R+ZvAMiDEQYE+BU sMxNnjukM16IiL/4eoD0B7tgrcCekqyUVbc0L99U1bTU7QtRSUEkPPPQtLjI7cXLVABAhK7hCW5+ k0HKFIgi4CLnNCkr6uX2ZmV1o7yqXj6nSVlUKRUg7n194Q1WBSujaLhIAAAgAElEQVSbsuM410tm mYasOqfTkQgho/0ntIkRMbe/ctH6azM7UEmSfnn//TC91ZidYnNlI7e60v6jkhQKhew9ZhFip2Q8 9xFhAou4RKA2QF0KIgHDErk9PJ86oMNUQjsZQoivfOVut9sNAK3tV6gu3+R9CMLJUQsB3rJI+cET McahfF68QDIdV4GKDJK7/eU1LSsal25yVy2avpB4alyzxiFTIAjdoyzPbLXjX0IA4+m8OkrQli96 Znecq2lZ4Q1WTXYK2UxbBXymlqlpiUjet4vPvUFSnJmgGMZisV9s3ozZriqTMKUMZL+z/y9EhncO 0R7HRcIu1djdZT6yV4tpwiFjwhB7u820MGCarRYACKJLQYuNu6QjKfFar1lMIf+jjz2xd8+rtvl7 wW2fn+oZYTjGkwaoEnSNsrGkQAKFuwWXsAJI6chDukC+2AOp5A7WS6qn8EKfh5CHblqk2M0OTpF1 +7pYzPWL2vNkIFt5bBl6AVs5Fh7I2+Ipq1lx0d/a44hSSVXV733ve5ATAJ58kkJhAcS83MuT4eK6 LCIQhOcOavc+FU8a4po1jpQh7n8p+btXkgDgkFGm2B9hW44Yr3Ya9jR4cpRRCqY1nsz7p51aXtx6 8v1zzj/xqX90u1wAsPH6T2Z7UeeCIpwYtigBj4Mc7beEAKeEwXlZASSCtlLIuCiNonO2k/In3+6V JUCEk2GrmHZ/peL1qiWoX9ReVt2caw9kP5iGNh1zlmXq1qT2fm3n3uj02gU6AhF7e3t/sXmz3Xii wA0UU0U5luRaEa3gVQlPDLNvPxI9OmjdcaG7uZz+8Kn4A9uTCyvpHRe6VzfK3aPsD1uTe7vNpnJ6 TpPCBSBAyEP6xthYasJN/PS5JCIyLoQQ2TyfXHz5Oz/V9RQAVLasXnnJeybvgAiDMR5PCYVCNMW5 AIeCQkCoYEFM0enQBKgdAy5aBQIAMYc+uBLFT1/pBQBKcN9Js3Ae9RsLVY1Lm5ZsnJwzl9vOLA+I ZLT/RN5GX3n9msvuwMwy4na7v/iFL4yOhu1ZJ28pmEL7nx5HZ6qGsbWaP+1M/ebl+OUrnO+/wPPo Pu1XLyXbm5RPXeFd26wIAdGU6I+wy1Y4rlzlrAlQW00VAKqMzeXSaIKdDI8n8w7F+L1/Ps65SKR0 TTfz7vBHP/v1f/7ouxSFN1R3/jv/z5S3RAAGo0yWgHEwGThkDLoIm6kirFgBCGUKKwUA4yVM67nK f6l21QVt6voWGQTEdXFkwJLOSDf/7OD2l7etvazIOHFeBXYu2s69vqp1jeAsnd8vxJ133knItM7Q AsUDkCMkJ4YL3RVBSBniR88kRuL8k1f42qqlzS8mQm7yibd717cqdkKyAPC76AVLXOU+WZIkRZZd qiRnXqEACLrJa72WlTMDdPQn3v+vv3jgf5+OxhKpVHq5Gxoa3nDe+V//8udVmRAqt228vqxu6s43 OhOGBZBpvbyiXh5NcMHTPaenQ7F6uUSAUoCMDeosOquM2tazADFTNcyU+OKN/hv/fcSwROew5XUQ u2n2mwOUSk1Lz42FBwY6D5iGNrmFh70+pOl4KVWdU7Syk1XXBX/zpf/+1t8aWpwQKkmw5cUtn/vc 5772ta9lDdribym785GBaQ0Au13Db15OrmtRLmhTDSbimrhujTPoJiYT6V4NFE2GDz5zeO+xAUSw LBM4U13Btqaymy9qNS0uBDSGpAdfGVYl76XL3HYni7LqZoLwi9/d85s/PR4KeJYuavK55H//ztcV RVEdDs7MltVvW3Xp+6a7q94wS+ppd+PKBlkIMCyhEKgvKAD0i1/8YjE/TcoUTx3Q47oAgHIfKdzh NA99kTSzv0PGd24ouS/nxlblkb0aIg5GeZmHOuR5IEk/c6A6PWXVLS5PEJGklRkhLEvnnKkOj6+8 xukJlFU3l9e3ubzBKc/gcPuDNQuO7ngYCQFARZa279jBhdi06S22bVDqLR3oHDs0OPWCgwBxXTy8 R7typWNlg2JTcCoSqjJmbSqnSl8+MLT5wedGRsMSmlSYMjKZADAtaeL5q+psHygiRhLWnqMjixv9 2SpZhydQu7B94Nj2WGSso7vvtcMdRiIsSTIz9cYVb1171V3OqXoZIkDKFF0jjAtQKC6pkUMe2h+x xpKiKkBuXl9oyBXPDAdZcpWSvEAyxazmMzt7oKVCuuMi933PJgjAzhP6+hbVreKbZh2wMSXfRPFo XHHRxhs+9cqfvk2oxLhwOZ3f/ta3Usnk5z//edsMKJBpkxsjE0KYpvnT+x8UwaVTZhkIAInCjWud DhkncB1kXodEyX+/eHLHq3sUiQjObB82IdQ2Hx2UZYvDORfN1Z5X9vWOJUXAOT6puXzlF9z2hZ5D L8dHexORIWHpycjg2qs/smj9NdM5EoUdZwhSBAh5qERBgBiJC0RYWjAXGkoSgEofPTHEBIAt90WP wEJs0kXihnZn57D12D6dIO44YbQ3K543nQzMEasueY8WH93z5M/t0ebxeH70ox+99trBX/3qfkrp dHnFYiJpCiLu3bu3J8wWNldMdyG7MmS6H1+ieKJnWKYAQCpaVlQFHEJAPKlbRqq747DP684ploLq gGRZ+kBUtFYAnzir2hmvAJAYG3B4yqg00zimaBMh2jE9zRQJnXMxczPSYsemz4kWS5tIVil+UAFA SbqrpDkHz+PHL/ee0yjbJ3z1hBFJiTOqEOxMwIbr/uGS933TTsFFQlwu15YtL6xcuXL//v2Fy2Vy V4DND+1RVcXtryxwoQKv37T48gVVnHMg1OuvcLlcPq+7rrqssqqSWWZjpZfx8TXD70QCYmhM59Pz e7gDVTOO/szNp4NrBGEkwRkHELC2eYbegcUOIqeClT6KAAhglTiOZZoONRaZtZ+L7R3Gp3879uNn 4ilDfOVm/7JaCQE4wO4uYzh6ysv23nBoXXPZ7Xc/XbdoAyFUlmVFUVKp1KWXXnr//fcXc/iXv//b kZhR0bB05l2nAePivOU1JiOC6b0nDtgJ2wDY19srAGurgrneKYLoc0kp3dTmO84zGGUAUBekhcPA UFI9QFaVt1ixFVg2ssR0s1BaIkl+pN/631e1//PHyGCUffO2wIaWdK3wgV7r5CiTzhxaiDMDDk/w 6o/+5KLb71bdQVVVCSEul+vTn/70ihUr7r333umOGh4Jf/yzX/rD5h9KshqqXzKXG1Aof9sF5+iM Jka6EikTEQiV+3q6OMqtdUE+scZXUWSLcc2cT9b7lCHimgCAt61QZ9y5hCk05El36tVKmciFAImW xKQ1AYuqJcaBCzg6YH3k/rGnDmhfuNF/+XLVHvbHBq1D/XYu4Wwv8CZF6zmXv/Nf/9y26ZZAWYWi KB6PJ5FI3H333S2trf/yL//S0dEBAEKILVu2fOlLX7ru+htWrWl/+H8ekGU5WL1gjpe2mLhgZfV7 b3yrIeRDhw4gVTo7jglmNDXUUJig6SMAIOViPqPyBGEgym0l5bLlM1TDQAncoAAVXkII2PS0JY03 gqVxyeXCraIigW4BAiQ08e1H4o/t07/6Tl9bjfz9x+MA0DfGxpK8rVoKuMiZwJR45oBKysYbPtV2 7o0dOx/u2P1EdLiHSjJn1i9/+ct7773X7Xbrug4ADqeTUtnjcqgO9wW3fK6yZc3cL21YfEG1ct66 Vdu2be84dqS78zhn/Lw1C8yJ2jMXgFQFJPOYes0F2GxRG1rlwEz1t1CSAJR7CEWwBBiW4KX4gXKf TjNFMS2yswh5aH0ZPTbIEFGRhG7B3pPmtd8decc657dv8//42cTRAUs3xZ4uszFEWyqkUu2TNz2C 1a3Bq+5qOeeKrv3PRQY7kWDPoVdkuU8IoSiKXUpft2j1kvNual133TxeVzf5Nec19vSPdnceByIv WbxkZbM3pU9YASwuLEEJIS5lfvgKEGEoxjRTUAK3b5oibjgZpWRoeqlC0eKCCxBFj34BIOVcpFQB AIBbNri+9ueYyUW1j4QTQrcEAPxxe+rBHalr1jjWtyh/2ZWK6aJ7lIWTYlmtrEizMTbe3AjWLAhU tejJiJ6MrH7bHaaeHO7ebxmpyuqGqpbVXJ4isX7u0HTzg9evfuLVKk5cV6zx5I1+BNAMrrj95T5J lXBeZi5EODHECIHFNVJhFv4sShAAhYJCIWkAIDBeQmKPnLPrLBxB57epPkc8oolIUqxqlF/rNRO6 sCkA/udVzSHDpoXqWIof7rPiOn+102itlCq8RJxGEpQ3BJAQhyeYZdEJZTJqTumSaZjWJasrAEAz Jl0HIWkImeLCKmleJiyCMBhhCV1QAjevdxZ7VPEX8LuIU0UAAAFWKbecQ98LMW02z3rX2zwIkDRE f4Stb1GaQjSbmaeZ8NRret8YX1Yn1QcpJdAxZO07aQ5GeS4l9Vm8XrCYmDJwJAS4FVLuIS3l8yMA QsCxQYsS8DlwfcsM7v8sSlgBHDJ6HEQA5wJSulDdWNQUK4DiOPN98S2yc3F+m1oXTPSEefcIK/fQ pnKpyg+dw+ZwnJsMQEDfGBuIMARwKIgACV2khq1IkjSUvdlyh95MUGTYtMgBUFSf8MIgCF0jTLeA INy83lmgJUz+gSVdpj6YPrFWSr2cTMdFJVW6CmTjX6/3AYAAONBjMg4KhcU18tpmpaVcsjPzLA5c gGYKzsHjwAofdchocXGmNBE4i0kQAoJu5MUblDnIy43XLdE5YhGEoAvfUTD7Lf88JV3VTq0WAEm9 WDeQnT6VlfFsc6hS0VAmXb3a8Zfdmm6Jvd3mOU2yxUGm2BiijeVUM0RcF7EU1yxhpy1V+ohtJ8x1 bjmLU4lZ22m5RjMlcLDPsu3Sj7zNM/1BU6A0AWgM2cTkkDIEFr1uZSoCAAASsxUAAPjwpZ6Xjxkj cR7X+f4ec3mdYrukQIAiYUjGcg/JUhycjQkUidy+TKcZseFuSXU5vaG5nAQRRhN8MMIJgdUN8rkL Z47+5qI0FajaTwkCICT0fCrWAsjN2BlJzGlg/tstflUCIWAkwY8OmNkACiVpakg7bHx20i8er6Ov bPcj9/S+9vzcz3O4z0IClMA/X+st9djSBKAuSFwKggCLg1G0Nk8IZjN2YrMygrOoCdDPXu1DBATo HWNH+9MywMVseGzO4pSmkOT2Dp0MIxXrO/wSlWfOVigA2+mXMgUCvOs8l6cI4s08lHaAUyE2tyHn oFtFm5dCSCQ9KyfnnPe3cYHyD5d7FAoEoXeMHeo1pcz0fxalovD033fkla49T87uzFv/66sPfecW cxK9exZbfvU51R2oaF49u/OD3RQsxbtGGEFQJbx1Y8nFhlCqAABAlTc942pmsW52ASBLaSOgPzIP LY0uWeb42QfK3CoShIEo21s0NfRZlIq9j/9o18M/KPWo7v3PdO56VIuPTrdDuPfwcNdeh6fMHayZ 9b1xAQd6LQRAhFs2Fhv5ykPJA6e5Il2dENd58etn1i8bTc3PRO1zkvs/VOZ3ISEwluQ7OgwhzuaE zjMkWUVCj2//n8d/+IGR7v1FHhXuO/Ly775gZ8z/6atX9R/dOnmf7f/9DQBoPufKWd8bQTjcZ6YM QQhU+8lts5r+YRYCYPcmAoCEXkJflqy1Gp+DFygPhODmO0OtFRQRkobY3mHYTNFnMV+oaF6z+C23 UUkZ6zvy1E8+/Oj33zPUuafwIUdeeuCJH36AE1qVqX18fvNnnv35J2PD3QBgGVrXnif/9xs3jvUd kRRn26ZbZndjBKF7xBqKcYJAS3d95qIoavZc7D1pfvb3ERDgVtEmgZn5GghdI6xjyCIIEoEHPhoq PlBXDL7+5+jLxwzbBmitkOrKpJKKNs+iMHpee37bg183tXTfciqrDcvfWt26zl+3WHH6LCMFAJ6y 2thw98u//+JY/1ELYLXgrYK9iNIg4pQVWb6Kprf9/U+LrHXMA0EYjPKjg6bdAuP2Ta6/OXeW0z+U GgcAgIYyqkqoW8JgQrfyA3LTIaujWxyShiiGJL14/NM1vge3J3/xYlJwODpojSb40lr5dXRvv8lQ t/QCLR7e+b/fBgAOwE29Y9ejHbsezXuFdsiRA6wQvIUznZDzubmLSEeQyAAkEwsVAE1r3r7+hn/C WdV0E4RwknePWvborwmQW2er/dsoWQACLuJ1oB4TFgfD4rJCihlmEhnv/hNJcv9MrfJKxY3rXKsa lc/8LsItMRLn2zqMpbWy34lnw2HzglDDcgBgABsEN0AkAaJARhFtflMBIAP4hKgTvAUEgNAJoZwb gCs5a0F+DMkwogaIiDd/6ZlZ34bdCqhzmCV0gQAE4dNXeMncLL/ZtAGp8pHhOBcCNBPcahHxYAFO ZTwjrXuUNYbmv/3IgkrpgY+UffZ3kdf6LN0Se7qMuiBtrZQ4PxsXmysC1QsAgAAMAazmnAMQ4LmZ AJiZ/jkAR0QBgCgAmBAqwFLOn6ASAGz6m6/M+h4QwLREx6AV0zgAEITPXetdUjvXxrezmYkXVEp2 LnJMKzYUINFxARiKnqppmSB+87bAbRudEgIH6Amz7R1GypwHYqKzqGxpR4BuJBQEB7AATAAr82d/ 5gAZx4hgGftSBfEypQygakF7zZLzZ30DTEDHsDWW5HZP709c4dlUYtbDlJjN0GgqT3fNjmtFFfML AIWOzxd2Gfupw+2b3F9+h1+hwAUkDbGry+gcZoScrQ2YE+qXXwQAFsBgRnnHqajv03m/GaJTCtAJ ZBSQIFzwnu/M+uoI0DtmDcfS1J+XLVMvman9Y5GYjQA0l6cbHWmGKFLJViTAzM/VU1znhblgVYP8 8w+WNVdQgsA4dI1YuzpNzTzrJJ09mtuvBgAKcBRpL+JJRe6R5SghCCBNlAQiBOWciDRx4k5CJYAl 579r1mEaBGACesPc5uRsqaB3zcHvmYfZCEBdkNqtuEwmimykQxCz1NDHBk+5AACA30nueXfwpnVO hwyAENf43pPGcHw++Wf+qkAlOVi7GAAGEHcS6VULdjB4DulfJPllIoUR5UkLggSwk6TVzxWX3Tm7 6yIC47Cny9BNgQg1AfKlG31FdporBrMRAJ+TICKgnRBRlGBzIVw5dvAcU+KKx9+d7/7WrYG6IFUk MBl0DFljSX6WS2t2WLD+evtDs+DvVfGdDrKUIuPQh/g8kZ6g0ghi1iZFgBhiFxIEWHrRFA1digFB iKX4zk49pgtEqPSRr97sD3nms1fKLM3D+iBFBC5KSIhQ5XF2oEP9p6+baXOF9KP3Bt+1ye1zEAQ4 OmDtPWloZy3j0tGy9moAIABxgFUEblXxK27yX376aSdZSnFY4ItEeolItstfAtiN1K7MXXHpHbO4 HCUwFON7us2UCQRhea10z7sDM1IdlopZjoLF1ekIWKI4R5AQ4FLHIwZHZurAM++4aa3z3vcG2ptl gjCW5DtPGIf6LIu/Pq3y3riobF0LAL1IjhiWAEgJ0ASsk/DrbnKvhzYQ7EN8kkgRWe5U1UFEyIhN SUAASuDYANvfY3ABBOAda53fuC3gUuf/bc3yjAurJEpQACQNXkzagQDI7Tx++BQ7gqaEz0k+d43v 27f5G8ooIgxG2bZj+vEh62wtQfFoab8aAGSAHQy0jBrLARICKgn+0EOuVTCOuFVSDiGxp//VV0zR zroACIGUKbZ3GF1hyw5ynd+mvO/ColiuZoFZCsCCSskuczRZcf0yBLiU8dL4A72vW0P3hpB0z3uC H7B/UISTo2zrcb1rhMGsWkP/taFx1aUAQABOABm0WO7o4QBhgR90kOsV4uJWyrQAoGrB+in7mU4J giAEdAxZO04YcU0QAJnCJcvUz1xVcp1X8ZitDVBGAQAJZEJ+M0AAuNTxUEBcE3Ht9cxSuK7d+fMP Btc0ygDAOHQMWS8f1btHmd319iwKoLxpNQD0IfaaPDen0bbwYgLe6cCgEHbaz9KLbi/mnIhACfRH 2NYOvXuE2ZntZW7yoYvdn7rCO48+n8mYpQCoEvociACci6RRVIzJIWFu2sbRwddtEbAR8tD//yb/ V2/2NZRRSsDkcGzQeuGI3jVinRWDAmha83YAUACeYhBhwh5AdvQLABhBJHicCQJAZbWieQaqXVvd jyT59g7jUJ9lt3lUJbh6tePH7wteuWpOiW7FYPZWxdJamSIIAbHi4sGAoOawgh7qe50FwMaqBuWH 7w1+6UZfQ5BIBBiH40Ps2UNp24CejR9PQtYXtAPIq5oVTXd3SasBEsD9Rjpee87VnyhwHnvWj+t8 V6e5q8uIawIRKMLyWukH7w5++FJPSY0YZ43ZC8DyOokgcgFjyeISIgR4HeNmwN6Tr4MdPB3am5X/ eF/Zl9/hs8kVQUDXCHv+kL7vpBnThURn0WrxzYy1130GAGSAxzjGGbcyNBwIYID4U4LLCIRKLe1T F3wRBC5EX5jt6jR3dppjSU4QEaE+SL98k+8btwVqCzY2nV/MPitzSa2MCIAQTQnTghmzu7kAn5MM xdJxg2On3RM6I9Y0Kj9+n7L1uPEfz8T7xzgHGI7xwZjhUbExRKt8FGbV5ObNh9Z11+x+9B5LTx7k +BcBH5CAcLsbHHw8ylwIAmD9Df80+UBKQDdF14jVF+F2u3V7CPkc+PHLPaVS+swLSq4Iy4Jz8Y4f jDImAGBZnRxwk8JnQoBIiu/qMm31miD8x98FT6esl4Qn9mt/3J46OcqyyU6UQG2Q1gaoS0XG/9qr bSKDJx77wXsB0eJCInCBg3gQntS4xoEAuIM1V33it9mdEYEiJgzeG2Z9EWaxcRMLAT5wkfuGtadc 158OsxcAAPjQf4b7IoxxqC+TWivojLOjEPD8YT378J++0nPxPOX0nQokDfHnXalH92nDUW7mNMXx O0l9GQ15CPx1Lwj9R7c+v/kzACAQOYCwWZCFkBTnjf/yCAAgAkHgHAaivCdsxVICcTxxBgEuXa7+ fxefJl1/OhTbKX5K9Iyx44OMCRBC1AalGUVJojgQtbIdlgIusqG1WBrr0w+Z4vI6eXG11DHEeIZ2 DgAMJoaivC/CLI5OBdW/VvZpT1nd0gvfbWrx8MnXSKbosWrB+is/tpkgEAKRJD8+ZB3otYZi3ORA EGxGM1WCdS3KF2/0XbbCMb/V4bPAnFaAl4/p3/hLXLeETGFdizpjWgEhcKjP7B9LG801AXLf+8tm ffXTiS2H9d++kgwnRVLnBgMh0q8TALwOUhugIS9BBPHXWn0WGzmpx4f9lc1OTyCaFAMR1h9lhjX+ KwGATEGVcXG1dOtG1/K6uVZyzRfmVJq4uFq2FzUuIKbx4ExmgOBQ5aN9Y2k7eCDC4xqfBZ3d6cdb 2tS3tKn7TpoPbEseG7RSJuhmuhYimuLRFKcDUOGllT4acCEXIP5q+EltPSdQUT/irO2I8JGTus7A DqTYEyJBUGV0SLCmSbmh3bmwav6rYeeCOd1N0E1kCiZLRwPK3DMUyAsAr4MoFGyVmgt4rddafwZr QXlYUS+vqPdHU/ypA9oje7WRuDCYsBgIAM6gd4z1RZgqYbWfhjzE6yBciDelJGBm3MsU+8as/ggf jnOWUXKyRCGqBC4F68ukCxYrFy9RT0Uq29wxV3FcUS9v6zDGCwNmetsyBZ+LjMTTvpWtx403kADY 8DnJDWtdN6x1DUbZswf1pw/qPaO2IQRCgGaKE0NWTxgcMlT4pKCLeJ2EcYEIBDLM1W9MqUAEhYLF IWWKaJKPxPlAhNvbEcfzah0yBFxkSY3c3iSvaZLnN31/3jEnGwAA/rQj9YstCZOBKuGGVmVGrwhB 6B5lJ4bShWRuFX9/15zo4c8EpAyx5Yj+zEH91c7x6J7NAiMTUGVwO8hYQkgU3CoJuNDnJD4n4Tyd MJN+A2ekVCCAXczKBSQN3hNmQ1FusvSgx5zdltRKCyqlhZVSa6XUXE5PaQLPPGKuK8DqRpm+hCYT uiUS+oSyrykhBHgdhNJ0DmlCF71hdsZGA4qEU8G3LXe8bbkDAPb3mNs7jG3HjY5hBgAGB0OHmMYB ASyIa6w/AlwAF8LvJBJBVUaXAg4ZnQo6ZHQrRABwu6A2IxKnOeZgm62cC8aBCUgaYijKRuI8a9Rm J/uaALlsuWPTIqWh7MzS7IvHXFcAi4u/+0k4muSWgIWVUm2Qzng+LmDHCUMz0gwat210vvstpyrb +/XFkX5zz0nzUJ/VOWwldBHTRG5jH5HzP3sdEAIECIWi24EUwaUSRQKfgzgV9DgI54LPHws8IiCg LWKY2QIAhiWiKZE0RDTFE7rQTGHxdJvDLBZVSRcvVS9dpr4hHBiFMVfBlQi2lNPd3Rw4jCZ4Qxmd sUpeoehUQM8oC4/t09+sArCoWl5Une/vG03wk6NW9yg72Gcd6bf6I8xm+cvoEyjsZrICxpJMAAjB 7PXA6ySVPlLjp6qcdjQVj2x+q01apZk8mhL9Y6bFhEQpIHAOmimShmA5Dntb+bGN2kofWdesbFyg rCu6A+kbAvOwcrU3K/t6LIuJaIrrDGaMbHAhAk4STTGbPng0wbtHrTfuGloYXIg87r4yNylzK6sa 4Oqc1hBPv6Z96+F49p9ZecgVjKQhOoZY9ygrc1OfE4Nu4pSL0rMJwuF+czQhKAGbG8awAEBwZnEu AE1VUQWkyQazTZ1lCuc0ySvrlWW10twJ2M5YzMOwW90gKxLqlrA4jCV4uXemaIAAv4vSMGOZl/vY Pv2OC9+cAlAkc+WqhmlHGM/0uhRCeBzE50KKYP8VCS5gcY3cMWQNxbhTxpQh7BtjQnBucc4F506H Q5WBElxVL79zg7MxJL2+GQqnDfMw7GqDNODCuAZCwEicVfpI4SphAeBzoCyhkdnv6QPaHaes6PPM x1iSv+fH4ew/bXuAcxAgPCqpL6N+F1EkcMgEQNg2gChRBWIcmsullgqI68K0IGmI4RgbjkmmaXHO GdMl5P94VeX6VvWvZNxnMQ8C4JCxtYL2hhkTMJbkxVhphNvuP7QAACAASURBVIDPiSkjbYGHk+JQ n7m45k27zhbGe3+cbiUkBFhceB2kvoyWuYlTQZsWyvaQzrHpgb2MuGQUMjgUDLiwuVw61Mv7R0wh RDxlPLUvcuGSqvl4oDcS5seK39iqKhIAgGFBNDkzUQoXUOamuYv4U6/p83Inbzh84tdjtmuIElhc I1+0RD13oVoToIqEjIPF5jmrwj6VSkGVUJFgZZO7ucqJCEKIx/fE7n9+2q5eb1bMjwCsbJBDHmr3 pBiKM5zprEJA0E0kOl4g9vyhv0YB+Pqfo4f7LQCwmNjQqlb7CUG02Bxd0zND2GFdCQmIBTXuhnKV oOCC//TpkR3Hpu3r+KbE/AhAyEMaQxQAAGEkXlRKpEQg4Bo3EWOaOKOKJE8D7nki/vxhAwBMJtY0 KRJ9HaoLJIoyJQtqvCGvQhF0U3z3ocFI8owr1jt1mLdARnuzIqe1IBFNFaUFVfhINqbIBTx9QJuv mznz8d87Uw/t0QCAcVhQKYU8M7jOTh0ogf/X3pcGSZZd5X3n3rfkvtRe1V1L9/Q23T09W88i0Mww wMggBhsZsCECG2MhKQBjmzB2QASEFGDCYWyMHSEhYwGSWCyCVRJYliyJkcRsYkbT3TPqfavu2rq2 3JeX7717j3+8rKysqqyq7J6urqxC34+Z7uyXr25W3vPuWb7znWjYuH80EQtJKTA+7/3mX89uz1K2 A3fNAB4cNvsTEgylsVBSm2b/mJGOCMtY9oJeueLercV0GvTK3f3Ceed/faUMgBndMXGgz9zmUU7M XTHrvqGYJUkKfOVc+Qtn8tu6oHuHu2YA/QkxmJKBc7lQbPf77Isvs4BKNX79+u60geZqwKVbXlDz YsAy6KERy+2AmZZK81h/tDtpE4GBj3x+vli9Fyr22467ZgCGpIdHzJBJCLygNkRzg+efsWQCmvHC bs8FFav65/53/eHKjMf2WX7HtBX7ik/sS5lCAJyvqv/8mVvbvaJ7gbtJZnpkzOyJi8ALmi+0kQsC 4mGKhZbd39euu3q7fOF7gp/8eL3g5Sl+eMTSqrPCHtMQR0YSgQrS314onxmvbPeKthx30wD2pOXe tNQMEBZKqp2drBl70rJxYbnGL17anV4QgA/+Zb7kMAClsa/XqC1eqBSym77rXkJrHumLJCP1iuR/ /9zuj4bvpgEIoifvs0wJAlwf2fLminGBF9SsnP7/vtlZD8W7hS+fdV6/7gFgRiJMg6Hs3NQ1r9Zx j1il+chwgoiY+fqc97Vzxe1e0dbiLvO5T+6zuuMioLLMFlQ7XUEE7Ekvawq9NeFtr3D0VqBY1f/t C8tkzwcG/evn3xDCqJY7LtnCjO6EnYgYzFBaf/Kri9u9oq3FXTaA7pi4f8AIJmjmym2N0NOMPWmj QYvwNb5yYbeFwj/zB7ngD57ih/Zi/NzXAQghnM4zAADM2NMdCYh3l2/VTu/qSODud/R857GQKQiA 0jxfbEs315AYSC0fAn99eud5QRvE7n/yd5VABEBpjKb1/JWXtfKFEAA81/G9jot5NPOe7ohlBPkM /tNXdjNB6O4bwIm9ZleMwNCMW7m2vCClMdq9PLtxIqOmt36W8N3Ferx/zfzJFysAmBEL0aGhSK22 wryrpc6KgwPYluhPh0FgxsuXStnSriVH3H0DsE06OWbVG0wVZ8ttjZG0TfQ2ddL837d23iHQEj// x3UnhwiP7bd8jf6RI0r5Sy+KSrETn69K80h/VAgCs6fwhTOF7V7RVmFLmpr/4cPhoCLma0znVDuT GLXGSLfRcCM++0Z1KxZ2jxHMogTgKX50zGINAF0D+wxjua22nFvYruVtAGZ0x62IZYCINb66e3NB W2IAw92yPyFAUBqFqi7V2hoiFg+JriVxRV/j61c7zjluHwGh+Zf/ogCgWpgf7TZioWXBmOEjj/m+ C0AI4dYqjQOho6AZe3vCwUl+btJRHVOxvrvYKlmLdx6yABCgNKaybR0CSvO+XqMRTX7q1Z2afNDM RPRfPlcEkJs4RdW5Q4NGM90tFEl0D+7XWgNg1tViR4QBq8J41jzQFQ4GWDCwWwsCW2UATx22bQkA SiNT1kEj9sZgIBUR8VBdYPTyrL9Y2mGhcABBdHPR/8qFWmH6rJOf64pSuZBbdU3/yP2WHdFaE4li dpsLrktB2orviIFUzAyZBgCt8bnTnZixffvYKgMY7jKGu+s0N615sr1DwA8OgaWH5Z++tpMigaDo UXX5418r/9Qnc4Xps9XspGkaXVbJqbZos9p/4inDtACU8/P3eq1NcH3teMGUrtWqfszoT9tgMPi1 Kzv1QN4YW6js9QOPRILMpq+QKWnHa+MQYPQlpL3UHP9Xp3ZGLihw25TGb3y++EMfXvyz16vB7mcy DvQbTrVSq5aar2eg5jGAAw89a4ejtWpp1QX3DK6vpxerp6/mLkzmxZpRgJq5LxUCIUhqv3F9F3ZL bqEBPHu/HbMBQAOKeaa9dJCveaxn+RD47KnOOgRaxoKC6JMvln/4I4t/c65ewyZhgIygtx2AV6s2 +zmBmnwwXXPf8XcO7T+xLWEAESo1dStTXSjUrt8qv3x+vuqu6GRiRipmGSKQK8XLF7fHSrcUW6vt +J6TkUBkTykslHStvUNgT1o2voZPvdJBJ6+neK3o8akb7vO/ufCnr1UbQaTWupyZjIWoLy6Y65SH Zt6bJERtKjmcq2hBSPePpvqG79mnaICIyo7n+Vpp5bg6V/RePb8wl6s1y3WELRkJSQKYd6cXtLUG 8IMnw6ZE8PzwVbuHADP2dtWZEQWHX7lSa0tsaIvhKV410Krq8k9/MvvLf1FolqlihiGwN6kO9JuN RXuuUy3lG6wHBqK2CFuUKepSjbdrCDEB1ZoSAgTSzK6vnZo6fTUzMVcxmj5pOmYFMw1uLrolZ0em JTbA1hqAFPSDJyPBz/A1MmVuJxLQjJHu5ZF7f/BSRWy32Lzm1bv/1au1f/KRxfF5rzl76CkeSMp3 Hg7vP3DA9VaIXDDrYmam6YboiQkpMZ1Vb1Px6g6wNJAAliF8BRAFM899za6nvzmea9gAM9IxKxh9 ojQuz+yMqKx9bLm89Y99W8QywABreIpn87qdQ8AylpkRNxbVlVm/nUTq1mEV1efDXyr92meLmkFC KLeSnzzDgNI4OWbdP2RoRt9wPctZf7sQlcJitZxvvAKAgYGk1Iyp7OYaAm8TQejSkPYPfhozx8Im wMwMkJRCM3yNmqfPXM/NZBwhiMHxiGlKwQRm/uZEZ4Vkbx/3Qt/9R5+MCIABT3Gh2lY6SGuM9iwX xf7nC6WwRe2Qq+8B/s0fZj//lqMZfq2UnzyTufZKJT8XNfmZI3YiIhoTAPY98FRA+QygtdbKbz4E AIRM6o6JUo0zpbZos3cGzez6KDmcr+hTNzyAlwwAsbBBRMxgZimlZdnMrDS7njp1JVOqegBFQ4Zp EAHMuDD1rRPg9vHDj0cCapDSdXrcph4NA8mwiC0Vxc5P+5OZ7S/G5yv6hz68cGVOVbLTC5e/tnjl JacwpxmjPfLEYL3bqwEhxP5jTwSUBywdAu7KFjDNSIZJEOaKaivjHJovqosz3tkpP1fRb074iusD L6QQUgRDUlgpnUgkTNMKFlap6b+7sMjMtinsoM2PMJPbbeJl92jCx4+/MxLobTguh9qbLK2YR7uX 58381pdLoSVp73uM4CD6q1PVH/9YtlAoZsdfL06f1V5NQ6aj8oG9ZjIsyqUWfMlwNDF29B0Nqo/W 2inlV9E/BSEeFpUaL5a3KhoWhPmirnisNAtCpui9erlSchQzE8Ey6+GW1pqZ06mUlEGLKhcd79Tl jClFLGwAACOztYa6DbhHBvD9D4cTIQLgabSjmAKAGb0JGbbqEdubk95Mbst95ZYQRP/+j3Mf+2o5 vzBRmDzjVbIawjTkkUFzpNsIllpZk8iP2eQpROJdew8+EtiAEKJaypYLK5oMhaDBpPAU5gtblWCR onnAEWutytXay+cLcwVdcVkvfxuMYHxJKkVERDCIprOV67dKqagV5CHKrq51hiN6t3DvZjz9xFPR wPOZXPT99pp+CRjuMrCkiP/RvymFTMqU71HHcPDgv3TL++EPL1645SuNWv4Wa8VkDKXl0T1GMKoI 9ebG1WyfxkaJp/uH9p8IbEBr7VbLq+q+kqgvLvJVXa619Wi4A5iSlpg+pLVSSnm+f/p6cXxBlWqr ww8iSiSSgkDEWuOtGzkhyBAkBAmgvLsyoffOAJ47HupPCDBchYlFv60mAcZAUoaXyPNv3PCmsyoV oXsTDQii3/ta+Rf/rFAql4PkTaTvYCiWemAk1BsTq8QMa9Vyc4YHgNe0T5I9e4JzQAhRzM6urvsS euLC9XmxvQ7S2wUzbGP5vlKaWjOz9j13Ie+6SwslQoMPZ1lWMhY2BBHB8/XNuXLIklKQaVI7OYwd hHs65e8Dz8YMWR8V7Lb3HBGEvV1GI2vxP75YFES5yr34Dt7/8ezn3nTyC7fKixMAPMWjg+nnv+uJ WLJL6RanUHXD3q54un/k8GPBOZBfnGruAWBGxCbboIWSWsPHuTuwmoRnLMtcSk+x41QaWuxCSOa6 ETDzif3pfX2WFAA4X/ZYsyHJNkXxWyfAHePx/dbxvWZQN70+57V5CAymZGhpbs/ZSf/qnN8dE1sq nbJQVO/+jYV8VecWpnM336hmJ4lwcp91ZND0FWdnbzTnNxsobUbqjCZ7xo6+A0ClmC2tpEALonhY lGu8FUUxBgyxzHVm5lAoFBQDlFJKKSIiIikkEQyBiEUAsmX1H39kjyQSBAaXa74pyRCYL3Ri+84d 417Pef2Z74qFLCLCVK6tJoEAYz31lnkN/Pr/KQIIhppsxQpfvVL78Y9lTYPyuVxu4k2WVszmb9uP RLie4w9HU3rNCSCEaIfQFo6lDj36nB2KzU9eWqUHETaJwVWvdRgQjHB8G1jxZtM0TTMI35mZ6wZg SF/jwREryNfN5PRA2n73I8nABpRmX7EhRKHyrRPgbWBPWr7rmK0ZArh4yzPbmHXIjL64iNn1kaET GfU355yoLRZKd/8QeP26+6ufLRLBrRYWrr7KkD1R2tcjy8VCw9zS/SPMLX6065Q9d/M6kRBi/4mn BsaOK3/ZABgIm2CNmsdo9StxPL6xeOenwyrjYeZwONI4x4jINE3DtPamZTIigsHAQZz1c983EAuJ YHKw4/lhi6rurpIt24ZJ3//y6WhvXADIlHQ7kwQAaGCs11ga9YzffqHseNwbl5W7+mVMZ9UH/7IA QLmVxauvkpBjvcbebkMxNSfv0/2jphVqsUitK4V2ddRiqV47HGv8lYGwJRhw1iQZA7dkJq9ylbfB GlrzSxZCWJZNJKSUQgjbDsXD5pEh01ccNusOk6fYkPTe7+yN2iJkCEHQmr0OEHO/i9gGA7AMeu/T ESEgBF2c9tuZdxvMFOtPLFNE/+Clekn1btVllOb3BdLNrBevfT1s0f1DVjIsAmenmFmhFT4wdtz3 W/Tsr60GtAkCpKgzpla9OJNV3xh3by4q5nanDq/F2l8yM9u2bZqGlIY0rK64/Y6DdmBgckmwvlxj AD/wePrgYCgREaYUFVeHzG3YM1uH7fkwzxwJHRsymeH4PL7YrnjWvj4jOJ0F4bOnqlfn/Igl8tW7 YwA/+tH6Mz5z/et7kjg4YMulwFEI4blOs98fS/WmeodXRQJBNcB17oQ0z4xVeVUpUHb5hfO1S7N+ MHJK0J2niJrnETYjFAqbltWbtE/us/wl374RMc8t1eZ+6l19e7qs/qSRDMvexK4aab5t1vyvnovF QkSE6/N+m6eqIZb7BHyN3/lqueTodFQsvu1g4Fc+UwiedoXpc/3hSldMrio1MOtaZQXZYWj/iaCj txm1atl17qhvkFGuMYF8DUGwDLq+4H/9ak0QAv8bgCFbRgdt3dxaZ9MyxEhP6IkD0UZpkoFG009m 6Rd7eCj07LH4idHIQ2ORI3tauH87F9tmAMNd8h89EmIGGOemfaONU0DzcjpIEE7f9P7olQqArii9 nazoy1dqgQaRU85100x33FzrVRGJtRqGI0eeWOsIlQt3InRFApNZRYSqqxeK+qVLtfF51cgQBP+T glYJN9zG/Vu96GsMpcTRPSum1LhOpZGerjbVvJ5/NPWex9PveSLdm9hV88y305/7sXdE96br0fBs oR4NG5utaF9v/RAQhE9/w/mjl8sBceWOs6K/9tkiAE/xoJzaM9jjrzOwbq1/b4Uiew880lzSEkKs ZTq0AwIclwPW2psTXs3n5gcC15tXoPlOPyaBVzpsmnF4wDi6x2o+fuenLl/6xhcLc+PBX/2mhKdt ioODoYHUrtr92F4DAPALzydMA0Lg4ozX8G02gGaM9piNzSEE/ujV6pfO3nlW9Bf+JA9AaRzsN48e O949dKhlinM9KfNE92C6b7TZBqql7B14QZqX+Wrr1QeXsmC3eWetXadSKyzkp874tbplMmNfr7G3 Szbv/lvj5xamrph2JDt90cnNoInOtIuxzQZwX5/x3UftIAQ8N9VWWUBpvq/PaBzaBPzmF0qnbri9 cVmo3p4NvHbNfWvSYyBi0VivJGlJY7Vb34DnOi0f7QNjRyPxdCMg1lrfgd6tITba2UFH4tL+vz0L WJy5evnMC5mZS9qrVRZvBC8KgmZu9vSmrpzOzt0IiNBCyPzk6fLCtXIbmpY7Hduf0vrZ5+KpCAFY LOmZNuTUmTHcZazKh/zSnxfmCioWonaEJxr40KcLwQ0f2GsqBQBWKBJNdK8t9AIgEqV1JNxG73+y uQHSd2vV0mpy6MbwFHjDfC4DlnF7WSDfc8fPvrwwdcUwLFUreU6xsjiuA1Iqoznomrj4eiEzs9QG AClBwqgV5nZZyr8ltt8AAHzwBxKmASKcn3a9Ngrtmnl/r7Fqw/zE72R9BcXcZmXgl/48D4AZSduP NCnX9o8ebekFASisbGhsxv4TT4Uica11QPr3arfRO0uEQlW3rgADWGo0MwTad4Bmb56/cvoF1ynX tzUJIkFLgzs1I+jRA1DKzRdzs43dj6BsTIKE4e8q0kNrdIQBHBk0v+d4iAAQnb7hbpoR0oyR7hbe 0vs/ng0qA5tWTC9Me6dueAC078Zq15o3vB2OJXv2tGb7lPMbpPnHjn1bOJbUWvueW267JAxAEOY2 m6fGgBBYI164Gp7rzN48f+G1L2Rnb7Zg7JFQbj0+MSW00q5TWZi6LIShl8BaEyuQkKb99+AA6AwD APCBZ6N9CSKg7PL5mc1tgBmjPXLVs36+qH/pz/PpqCg4m3x1//XzgXTzmcr4C1y+5a8UKB8YO96S 7ymEsTHZYfT+J8OxJLPWyi/l2lX81Iy5wuadAIJogwAgvzA1fvbly6e+HGz9VesnELMS0hCGHbwi BYQQvuc4laJlR0KReDzdn+od7h0+NHTfQ+nRk/HBY1tEN+wodIoBCEE/+1xcCgjCTE7dKvgbm0BQ E1h7yakb3qderXRFN+JLvzXpzeS0V807+enBrpCv/MrqNkXRP3q0pWz/pnMdR+9/MproLmZnXaet ZKggTGZUm65N81XBAxtAdvbGhde+MH3tTadSNAyrpemCYIaTXfvfIc0QAM0cUI9C0dShR5/bf+Kp 4SOPD+w73jdyJNU3mkj3SitCQuyu7t/W6BQDAPDIqPX0YQuAILo441fdzfsDR7pXHwIA/vDlylsT Xiwk8uskhQJCdX7iTDxix2wBtBAoT/bsaRkNt6PkPHLk8Wiiu83pd0SYzvptcGIRSPUHUMr3apXc 3I0rp1+4deOcEEJKo/XWX1JkMaNdwlgu4loSABpnhZRGcAchRCRkkpBoKgnvYnSQAQD418/F0xEC oBlvTm7SLhAcAi3/6Rf/LL9QVMmwqLh61Tn+0uVapqyd/IzvVXviQjMLIUrZ2bV7fc/BR5pDQyyR gtrZ2cOHT/YNH970MiIsFjVzuwXexkeR0qgWs+X8IgCtfN93lfKV8n3fbfy58Uoknj7w8HdFew9Q k4VskFFqyESbcr1Ldg86i9hkGfTz3xv/4KcLnoLj4ZtT3oPD5jqVWQAgwr5eeX1+dQTJjPf+bvYT 7+tKR4XWrHlZ1PYjXyoBKM1dtkwjsaQ7pLUu5+fj6f7mm0hp7D306Pi5V5rNIOBErLryjiEItwrK 1214QLR6gkuqb7ghqes6lSBzFeR5tPa18pXvGaYdjqVQZ1C0q2mlOTBJ+vtgAJ11AgB4aNT6/odC hgABubK+PLsRTUgz9vW0rp55Cu//RPb0TVcIauz+L37TCdijyqulI8ufXQiRm5tYe5NwLDUwenQV 4Sd47r59EFCocKGi20y2MK8blFqhiB2O2eGYFYpYoUgokojEu+Lp/mD3Y0321JQbpZOC7Ce/3R60 nYGOMwAAP/lM7OiQETTm3cqpqexGEhKK+ciQuZZAQYSyw7/6meIn/rY8u0Tr/f2lLgIrPtATX7EJ yoXFlv1c6f7RVO9wc0B8twa6SEE3M36tvQCYApLIne7IQP1z+e+1gu/VWtb7APgBMYOht0qlpYPQ WS5QA7/wfOJ9v5etuKwZ1+f9kEXpSOukBDP6k2JikYprRHWIUPX4j79efXPSOzFsGYJzFV1/S1+P 6c7rlfafnb3R0nEf2n/CrZacSjGIET3X8VynZVNY+xCE2YJqc4hygNo67cLtgAI2BYi1Xrz2sgV3 JtxPRsgKhU07Yph2EB6EIgksNUOC7lqzUSdDfuhDH9ruNbRAyKTeuPzGDVdpaCBX0l0xabZIewKB 1HhC3FxoUUsKesln87rs6nPTdYlpzXhgNJqbvSbEspNLRLVKsXtwf8sfEU315ufrPhIzW3a44V3c GRg4P+257eY/ASAZFonwHZ7YSmN8wZeCtF+rFedMeEnbrZYLpfxCMXMrNz+Rm5vIzt5wyoVUz5Dr YyqnCLiRUa9ccX3NhwZ2Gwm0gU50gQI8e7/9wB7TkADD1Tg76W1QmbckHR401mOSGhITiyq7JCkX stCdjESTvat8AKX8lpEAANMKjdz/ROP63Hzry9qEIExn1W3pwBFQcfWdtgPAMjCYksyQZkiQcDwe n/eKjjYMIQ0jyIGy1vF0PwiBMgURilW+Muv/7lfL/+JjmRcv1e7wZ3c2OtcAAHzoPYk6ZYVRU/zN yXXzj5qxNy37EpvXbjRjuMvwNQ+MHV/F+RFCLExfWe+NoUhiz4GHAnU3p1K8s9ZHLHnz1+Y3qfSt fVvJYRCU8tvRnlgFzUiE6ymvaO99Wutcha/Pq/PTqlTxtO8Kaew7/u2pvmFmJEIibEIKGAKK4fiY L+r/9NfFf/ep3O3ybTsf1OHl7tM33A99uuApEIEI8RCdGLbWW7Ih8do1t+RsJLPsKX72/rr7fmv8 XIMDHEBrPbjveLJnz3pvLyzOTF09TSRSvcMDY0dv9+MIQs3n16+5/gbct/VWXs33Oa83ND4Nw5KG ZdrhUDQZjqWiyd71CmEAiJAp6Tcn6mJk+ckzbjlDQhp2jI3YI0eHxwbTflPJRBAKDmdKeq7ge2q5 X5kI/+Hd8acP27e59s5FpxsAgI98qRQMpAi6Y5MRcXxPi67FAET4yvnaelkjZiQj4uHR5drC1TNf 9VyneesIaRx46NkN1tOwgSOP/YPb+iCGwGJZvzVxhxL7uanzw/atsC0BEIkgMSWlwayV8omEZUdM OxyKJYM/mHZELjEjCCg4+o3xugFo5XuVrGFHAUgrojSkwP4+Y7TbaFCgAy+ICLmynsiqbFlrjYCN 9N3H7X/7rvidfYpOww4wAAAf+ER2KhvogkAIpKPi6FDrAhkRchX9xrjXsoijNI7vNXuWhi8B8Fzn 8qkvG019MFrrgdGjG49tLGZnJy+/0TUw1j9yfzvrFwRf48qsN51VRjs6MK1QuHVp0JiK2s2Bu1jl xQVRSuNFZn30ie8DQEDR0d8Y30iOUmlEbDo5ZglaEWsQICWVHH1t3l8s6YCUsa9Xfvifpe/sg3QU OjoGaOCj/zwVtYkIAWu+UOXz062/y0BB6KGRFpUBAILQvPsBmFZo74FHmktdQoj5yUsbryee7t// wFP5+clNIwFB0IyJjHrlcu1WXtcnz238nnUgrYheafRr+xaCRG0Q1BqG1egDZsAySa3mhay8v4Dj 8YuXaqt+dQwozWGLvuOw/eR+M2QRATcX1Y/81t0pCG4vdoYBCEEf+4l02CQieBrMyFfWtQGt0R0T J8fMVSIKzOiOt5g3mege7Bk60GwDSvnzU5c3XpIdjh169Lni+i0yQRwynVNnp7yprK+XehqFQF9c rFr5BgExLcmiCCk3jUADKkRwMoSj8aF9RxsU6rBJBwfMVERYBvnrWELg9rxydYUPqTXmCzpX1gsl bVviHQes7pjwNYoO//Tvb8N877uLDq0DrIVt0rcftL90tuYr+BqGoJqHQlX3JeTar5IB26TehMyW tavqG4gZY71GxGqx16LJHt9zq6Vc3WMmKucX0n2jQm7ChonEu7TWa4llgc99ZdbPlrXrs1pKYDIg CRWXaSW3Z4MzoS6JGmgklifCdovaJZFYKnUxAGZVqnqZqiF7jtd8loJsg4KzMWqLAwNGT0wKQrbC LQ2PGbMFPdwtmUGExZKeyfsLJV2scndMEGNvt8yVueJxrsI1Tz88um4jdedjxxgAgERYPDhsfeWi 42soDUOQp5Ct6N54621qSOpNCE9xoaKFICIcXr+gE0/3VYtZt1Zt7GbXKSe6BxsXtNzoWIdWqTXm izpX1VqxlKQ0mEGAbZIU9aG8wfZqp81XCDCDtZKVFQZAJJpm/rLWWmvFrBPpgb6xEzJ1X6mmF4s8 mVXzRZ2MCEuSIUkzLIN64mIwKWfzWq3JRxHBU1go6ZFuI4iPTUnZChcdPV/QvQmpGUcGzUu3fGZM ZNR3HrUj1s5wJdZiZwTBzTh1w/2VzxRqfl3wzJAUghmC4gAABoBJREFUNunIUNMQoCYEXm+mrC/O +KkIPTxqbSy7cuP8q5ViNkiMKuUPHzoZS/U2/jVo+W1znb7mQlWXHLYMsiQF+SspQIBmeIorNeQq KlPWNQ/++vWLwC3RDO27cvbFvoSBNbGvUj6zTnQNpnqHgwUTQAKOi+vz3nyxPm/22F6zNy6ac5pa 46XLrStcSuPIkDGQlEHuoejotya8oJn4wRHLlCg6+o1xj4F/fDL0vmdiLW/S+dhJJ0CAwZQc6ZKv Xfd8BRU41oRMSadjcm1IIIkUI2TSQFIGj8CNb57q3evVqpVSVkrTMO3c/ETPngONf9VatW8Agihi i3RExEIiYlPYqj/rg50uBYUtSkfFUEomIkREgWvXGlT/6VSdTYSl1mppPVopzw7H+oaPDB96NNE9 aIWijTcxQwoMpgxDIlPWRJjJ65gtYqFlnVAhEA+JmbwKZHebjyNBKFb1WI+pGQyELDIlZSvaU3A8 7kvIwZS8MOMzUKzy8w+Gtmi2zVZj5xkAgOFuYygt35zwHC8QS4NpULas4yGxli8kBQXORpvHdDzd H46lfdcZuu+hUDRRKSyGY/V8X/u7v4GWD/YgmYv6MCKEDOqNi66YIKDq8SqfZDkGEJKchQiVlNZa +6YVTveP7D3wSPfgvoDE1hKaYZsUsWmhqKXAXF6noyLcNKk2HhKlGldq9eph8zZ2ffTE608NZiTD MlfRNY8rLqej0hCQApkSuwrffcyO2jvSC9p5LlADX7tY++0XypmyFgRDImxSPCSGu2U76lrbCF9h OqccT5uSIjb1JaSkOgFTChSqfPqmu+o7EQJag4GYTcd7K57SoWjqtqxRCuQr/Pp1N5jR9vh9dkOC koCKy393rRZ0TTRH58wYSsuD/XUFmkCy4MxNV2kMpuShAcPz8dKVmhT4+e+JP3NkR5aHd6TVBnj6 sP3+74gOpYTS8BWKDlf9erWyYyEI8yU1X1QLRT2dUxdn/Jcu1W4u+sF2VBrxEB3sN1bV+AKHn4Ca z+FYKhLvut2zSGkkI3RowFAMX+PCtNe4AQPxEDUMotn2iJApqUbmmIFEWARptIBYnohQ0Lp0Y3Gn Dg7bwQYA4Jkj9o88GTnYbyhmAJkijy/4uH2azT2DZnRFxWi3PDxoDiSlIDDj2rw6fdOrD0Fj9Mbl qu3NS56J1isUm9uErzgQnxzuliEDgpApq2x5WYiFgWSk9QCBUo2b/TituSsmADgeewoRs55Wmsx8 ywC2Cc8dC/3TJ8In9loMgDBb0G/ccD21ER9ue2Eb1JuQPXFxcMB4+rDdHRMAMmV95qYbBPGGRDzU evUMVNoQy1gBguuz42kCmDHSY2gNAk1l2ppLQkTF6opZ8rYhgpZhXy23mfmqU3/dm2HHGwCAdx6y f/Cx8GP7LENAEEoOf2PcLVR1O2NYtwXBoFitoRkPjpjJiCAgW+HxeSUFmNEVFS2fx8yourd5wDHC lrANYkAzuqPCNABCvqpXeDut3hrosKxhrnLwH2YYsl5UDu/YUlin7pHbxBP7re89YT9xnx1MnXEV zk55E4uqY22gAU/h2JAR1AcmMr7jMQcD81YaQCOFWnRal283ABEafnzIpIgtwPD1ctaVgOIaDnnQ ky0FcpXlvk0CHJcDiWrbRL6iPR8ADvR3aG/tpuj4DdI2nrzPfv4h++ERqz8pJMHXGF/wz015zdL7 nQnLoJFuAwTFmMoqQYiFaFVlrM4GB/LltzdNnpAMEfMK9pFmuGukKQILZEbzSqTAbFETkI6Kvri8 OOMBIMKxPTu1Z3L3GACAB4et9z4deXK/faDfMAWYMV/Sb1x3M+XOdYcQtLN1SUMAjLmCUhphk9am eYKIuabgvI3hsMyI2IIEDFGX/RGEhZIK2k1XiY8GhmZKMiQZkqSgizN+cALEbHrxcu1mRhHBlti5 TcM79eRaD70J+ZPPRF656n7xbO3yLa9Q5ZriS7f8UlIOd3euzpMhKWJRocpKI1/R6ZgIgoFVEAIE 5KvcE2+dtNkUkpAtK4OQDNe3uqdwfrouPLPqnkEBcTLjz+QUM1zFwSsCmC+qml+//gPP7lQeBHaf AQAQgr79oH1yn/XyZffL55wrc77rc8VlT/EW1chMiWC6Y1CWvgMwc9iigsNgOF5rL19zfYBatqx6 E62j5E1xM6MqLocsGus1gmaBtybcjWYTABrw/XrCJ2DvEcFZ2v1jPeJdD+zguZH/HzaSW+Kjz5RB AAAAAElFTkSuQmCC "
     id="image10"
     x="0"
     y="0" />
  <rect
     style="opacity:1;fill:#6080ad;fill-opacity:1;stroke:none;stroke-width:3.82634115;stroke-miterlimit:4;stroke-dasharray:none;stroke-dashoffset:0;stroke-opacity:1"
     id="rect4560"
     width="60.232235"
     height="48.055458"
     x="7.3180194"
     y="170.97041"
     ry="9.6826401" />
  <path
     sodipodi:nodetypes="sccsscccccccsccssccs"
     style="stroke-width:3.55060983"
     inkscape:connector-curvature="0"
     d="m 70.396617,204.28514 c -1.960938,0 -3.550595,1.58965 -3.550609,3.55059 v 3.55061 c 3e-6,1.96095 -1.58966,3.55062 -3.550609,3.55062 H 13.58686 c -1.960949,0 -3.550612,-1.58967 -3.550609,-3.55062 v -34.05035 l 20.877584,20.87759 c 3.337591,3.35427 8.372468,-1.64514 5.041866,-5.00636 l -20.91309,-20.87759 h 19.847907 c 4.723709,-0.0104 4.723709,-7.09079 0,-7.1012 H 13.58686 c -5.882839,0 -10.651824,4.76898 -10.651831,10.65182 v 35.50609 c -9e-6,5.88285 4.768981,10.65185 10.651831,10.65185 h 49.708539 c 5.882849,0 10.651836,-4.769 10.651827,-10.65185 v -3.55061 c -1.4e-5,-1.96094 -1.589671,-3.55059 -3.550609,-3.55059 z"
     id="path4523" />
  <g
     inkscape:groupmode="layer"
     id="layer1"
     inkscape:label="Layer 1"
     style="display:inline" />
  <g
     inkscape:groupmode="layer"
     id="layer2"
     inkscape:label="Layer 2">
    <g
       id="g4653"
       transform="translate(-50.911687,-150.26019)">
      <g
         id="g4580"
         transform="matrix(0.854089,0,0,0.854089,10.307577,171.56605)">
        <g
           id="g4585"
           transform="translate(47.418945,141.67141)">
          <path
             inkscape:connector-curvature="0"
             id="rect4563"
             d="m 29.050489,179.85466 h 18.07956 v 18.07956 h -18.07956 z"
             style="fill:#932626;fill-opacity:1;stroke:none;stroke-width:4.53605127;stroke-miterlimit:4;stroke-dasharray:none;stroke-dashoffset:0;stroke-opacity:1"
             transform="matrix(1.4721266,0,0,1.4721266,10.320735,-229.04769)" />
          <path
             style="stroke-width:1.50775194"
             inkscape:connector-curvature="0"
             d="M 81.575258,64.176272 V 35.785289 34.277537 33.734761 h -3.060735 v -0.964976 -3.362281 c 0,-6.70948 -5.458062,-12.152465 -12.152482,-12.152465 -6.709496,0 -12.152479,5.458062 -12.152479,12.152465 v 4.327257 H 51.133748 V 64.19135 h 30.44151 z M 57.19491,29.407504 c 0,-5.035876 4.101085,-9.136976 9.136978,-9.136976 5.035891,0 9.136976,4.1011 9.136976,9.136976 v 3.362281 0.964976 H 57.19491 Z M 54.134175,61.160769 V 36.735188 h 0.06031 24.32004 0.04523 v 24.425581 z"
             id="path3729" />
        </g>
      </g>
      <g
         transform="matrix(1.4146978,0,0,1.4146978,56.115759,71.040809)"
         id="g4558">
        <ellipse
           ry="2.5632622"
           rx="2.6958449"
           cy="184.33081"
           cx="36.216854"
           id="path4664"
           style="opacity:1;fill:#ffffff;fill-opacity:1;stroke:none;stroke-width:3.32618761;stroke-miterlimit:4;stroke-dasharray:none;stroke-dashoffset:0;stroke-opacity:1" />
        <path
           style="stroke-width:0.85408902"
           inkscape:connector-curvature="0"
           d="m 35.037104,187.09766 c 0.119573,0.0513 0.247686,0.0854 0.3758,0.12811 v 3.47615 c 0,0.33309 0.19644,0.61494 0.478289,0.76014 0.111032,0.0598 0.239145,0.0939 0.3758,0.0939 0.469749,0 0.854089,-0.38434 0.854089,-0.85409 v -3.47615 c 1.272592,-0.3758 2.21209,-1.53736 2.21209,-2.92952 0,-1.6911 -1.375083,-3.06618 -3.066179,-3.06618 -0.128114,0 -0.247686,0.0256 -0.3758,0.0342 -0.298931,0.0342 -0.589321,0.10249 -0.854089,0.22206 -0.316013,0.13666 -0.606403,0.3331 -0.854089,0.57224 -0.597862,0.5637 -0.982202,1.34946 -0.982202,2.23772 0,0.88825 0.38434,1.67401 0.982202,2.23771 0.247686,0.2306 0.538076,0.42704 0.854089,0.5637 z m 0,-3.37365 c 0.162277,-0.35018 0.47829,-0.62349 0.854089,-0.72598 0.119573,-0.0342 0.247686,-0.0598 0.3758,-0.0598 0.751598,0 1.358001,0.60641 1.358001,1.358 0,0.7516 -0.606403,1.35801 -1.358001,1.35801 -0.128114,0 -0.256227,-0.0256 -0.3758,-0.0598 -0.375799,-0.11103 -0.691812,-0.3758 -0.854089,-0.72598 -0.08541,-0.17082 -0.128113,-0.36726 -0.128113,-0.57224 0,-0.20498 0.05125,-0.40142 0.128113,-0.57224 z"
           id="path3731" />
      </g>
    </g>
  </g>
</svg>
